%YAML 1.1
%TAG !u! tag:unity3d.com,2011:
--- !u!114 &11400000
MonoBehaviour:
  m_ObjectHideFlags: 0
  m_PrefabParentObject: {fileID: 0}
  m_PrefabInternal: {fileID: 0}
  m_GameObject: {fileID: 0}
  m_Enabled: 1
  m_EditorHideFlags: 0
  m_Script: {fileID: 11500000, guid: e2e5269517f28664db5ccd78cbd208b1, type: 3}
  m_Name: Mecanim_Bot
  m_EditorClassIdentifier: 
  profilePictureSmall: {fileID: 2800000, guid: c2e46bf9b54e23b44bee26ff42116bb4, type: 3}
  profilePictureBig: {fileID: 2800000, guid: f212ee23e50b2bb4db9a255af53b3177, type: 3}
  characterName: Mecanim Bot
  gender: 2
  characterDescription: 'Animation Type: Mecanim

    Fight Style: Chinese Kempo'
  selectionAnimation: {fileID: 0}
  selectionSound: {fileID: 0}
  deathSound: {fileID: 8300000, guid: 59d283572ffee7c41b2a31e47c3b32be, type: 3}
  height: 5.7
  age: 1
  bloodType: Unknown
  lifePoints: 1000
  maxGaugePoints: 400
  characterPrefab: {fileID: 100104, guid: 00742ea973dc1914b9364529ba316ee2, type: 2}
  alternativeCostumes:
  - name: Alt 1
    prefab: {fileID: 100104, guid: 00742ea973dc1914b9364529ba316ee2, type: 2}
    enableColorMask: 1
    colorMask: {r: 1, g: 0, b: 0, a: 0}
  physics:
    moveForwardSpeed: 8
    moveBackSpeed: 5.8
    moveSideSpeed: 8
    highMovingFriction: 1
    friction: 30
    canCrouch: 1
    crouchDelay: 2
    standingDelay: 2
    canJump: 1
    jumpForce: 38
    jumpDistance: 7
    cumulativeForce: 1
    multiJumps: 1
    weight: 230
    jumpDelay: 4
    landingDelay: 7
    groundCollisionMass: 2
  headLook:
    enabled: 0
    segments:
    - firstTransform: {fileID: 0}
      lastTransform: {fileID: 0}
      bodyPart: 1
      thresholdAngleDifference: 0
      bendingMultiplier: 0.7
      maxAngleDifference: 30
      maxBendingAngle: 80
      responsiveness: 4
    nonAffectedJoints:
    - joint: {fileID: 0}
      bodyPart: 4
      effect: 0.3
    - joint: {fileID: 0}
      bodyPart: 5
      effect: 0.3
    target: 1
    effect: 1
    overrideAnimation: 1
    disableOnHit: 1
  executionTiming: 0.3
  possibleAirMoves: 1
  blendingTime: 0.05
  animationType: 1
  avatar: {fileID: 9000000, guid: 2f7e662fc0b02fb40ba4fac8f5440e49, type: 3}
  applyRootMotion: 0
  animationFlow: 0
  moves:
  - combatStance: 0
    cinematicIntro: {fileID: 0}
    cinematicOutro: {fileID: 11400000, guid: bdca09a5d2670f942b5a8d8592848ae4, type: 2}
    basicMoves:
      idle:
        clip1: {fileID: 7400000, guid: aca2b3bb35939334e8465c428be27e8c, type: 3}
        clip2: {fileID: 0}
        clip3: {fileID: 0}
        clip4: {fileID: 0}
        clip5: {fileID: 0}
        clip6: {fileID: 0}
        wrapMode: 2
        autoSpeed: 0
        animationSpeed: 1
        restingClipInterval: 6
        overrideBlendingIn: 0
        overrideBlendingOut: 0
        blendingIn: 0
        blendingOut: 0
        invincible: 0
        disableHeadLook: 0
        applyRootMotion: 0
        downClip: 0
        soundEffects: []
        continuousSound: 0
        particleEffect:
          editorToggle: 0
          prefab: {fileID: 0}
          duration: 1
          stick: 0
          destroyOnMoveOver: 0
          followRotation: 0
          lockLocalPosition: 0
          mirrorOn2PSide: 0
          initialRotation: {x: 0, y: 0, z: 0}
          positionOffSet: {x: 0, y: 0, z: 0}
          bodyPart: 0
        reference: 0
        name: 
        editorToggle: 0
        soundEffectsToggle: 0
      moveForward:
        clip1: {fileID: 7400000, guid: 2893b98ba9e856c4988eea39fe724b23, type: 3}
        clip2: {fileID: 0}
        clip3: {fileID: 0}
        clip4: {fileID: 0}
        clip5: {fileID: 0}
        clip6: {fileID: 0}
        wrapMode: 2
        autoSpeed: 0
        animationSpeed: 1
        restingClipInterval: 6
        overrideBlendingIn: 0
        overrideBlendingOut: 0
        blendingIn: 0
        blendingOut: 0
        invincible: 0
        disableHeadLook: 0
        applyRootMotion: 0
        downClip: 0
        soundEffects: []
        continuousSound: 0
        particleEffect:
          editorToggle: 0
          prefab: {fileID: 0}
          duration: 1
          stick: 0
          destroyOnMoveOver: 0
          followRotation: 0
          lockLocalPosition: 0
          mirrorOn2PSide: 0
          initialRotation: {x: 0, y: 0, z: 0}
          positionOffSet: {x: 0, y: 0, z: 0}
          bodyPart: 0
        reference: 0
        name: 
        editorToggle: 0
        soundEffectsToggle: 0
      moveBack:
        clip1: {fileID: 7400000, guid: 54c77c98019150c478f0aeedff1c402c, type: 3}
        clip2: {fileID: 0}
        clip3: {fileID: 0}
        clip4: {fileID: 0}
        clip5: {fileID: 0}
        clip6: {fileID: 0}
        wrapMode: 2
        autoSpeed: 0
        animationSpeed: 1
        restingClipInterval: 6
        overrideBlendingIn: 0
        overrideBlendingOut: 0
        blendingIn: 0
        blendingOut: 0
        invincible: 0
        disableHeadLook: 0
        applyRootMotion: 0
        downClip: 0
        soundEffects: []
        continuousSound: 0
        particleEffect:
          editorToggle: 0
          prefab: {fileID: 0}
          duration: 1
          stick: 0
          destroyOnMoveOver: 0
          followRotation: 0
          lockLocalPosition: 0
          mirrorOn2PSide: 0
          initialRotation: {x: 0, y: 0, z: 0}
          positionOffSet: {x: 0, y: 0, z: 0}
          bodyPart: 0
        reference: 0
        name: 
        editorToggle: 0
        soundEffectsToggle: 0
      takeOff:
        clip1: {fileID: 7400000, guid: 4048fa383bce08746b0f80f57f8b6149, type: 3}
        clip2: {fileID: 0}
        clip3: {fileID: 0}
        clip4: {fileID: 0}
        clip5: {fileID: 0}
        clip6: {fileID: 0}
        wrapMode: 8
        autoSpeed: 1
        animationSpeed: 1
        restingClipInterval: 6
        overrideBlendingIn: 1
        overrideBlendingOut: 0
        blendingIn: 0
        blendingOut: 0
        invincible: 0
        disableHeadLook: 0
        applyRootMotion: 0
        downClip: 0
        soundEffects: []
        continuousSound: 0
        particleEffect:
          editorToggle: 0
          prefab: {fileID: 0}
          duration: 1
          stick: 0
          destroyOnMoveOver: 0
          followRotation: 0
          lockLocalPosition: 0
          mirrorOn2PSide: 0
          initialRotation: {x: 0, y: 0, z: 0}
          positionOffSet: {x: 0, y: 0, z: 0}
          bodyPart: 0
        reference: 0
        name: 
        editorToggle: 0
        soundEffectsToggle: 0
      jumpStraight:
        clip1: {fileID: 7400000, guid: 4048fa383bce08746b0f80f57f8b6149, type: 3}
        clip2: {fileID: 0}
        clip3: {fileID: 0}
        clip4: {fileID: 0}
        clip5: {fileID: 0}
        clip6: {fileID: 0}
        wrapMode: 8
        autoSpeed: 1
        animationSpeed: 1
        restingClipInterval: 6
        overrideBlendingIn: 0
        overrideBlendingOut: 0
        blendingIn: 0.01
        blendingOut: 0
        invincible: 0
        disableHeadLook: 0
        applyRootMotion: 0
        downClip: 0
        soundEffects: []
        continuousSound: 0
        particleEffect:
          editorToggle: 0
          prefab: {fileID: 0}
          duration: 1
          stick: 0
          destroyOnMoveOver: 0
          followRotation: 0
          lockLocalPosition: 0
          mirrorOn2PSide: 0
          initialRotation: {x: 0, y: 0, z: 0}
          positionOffSet: {x: 0, y: 0, z: 0}
          bodyPart: 0
        reference: 0
        name: 
        editorToggle: 0
        soundEffectsToggle: 0
      jumpBack:
        clip1: {fileID: 0}
        clip2: {fileID: 0}
        clip3: {fileID: 0}
        clip4: {fileID: 0}
        clip5: {fileID: 0}
        clip6: {fileID: 0}
        wrapMode: 8
        autoSpeed: 1
        animationSpeed: 1
        restingClipInterval: 6
        overrideBlendingIn: 0
        overrideBlendingOut: 0
        blendingIn: 0
        blendingOut: 0
        invincible: 0
        disableHeadLook: 0
        applyRootMotion: 0
        downClip: 0
        soundEffects: []
        continuousSound: 0
        particleEffect:
          editorToggle: 0
          prefab: {fileID: 0}
          duration: 1
          stick: 0
          destroyOnMoveOver: 0
          followRotation: 0
          lockLocalPosition: 0
          mirrorOn2PSide: 0
          initialRotation: {x: 0, y: 0, z: 0}
          positionOffSet: {x: 0, y: 0, z: 0}
          bodyPart: 0
        reference: 0
        name: 
        editorToggle: 0
        soundEffectsToggle: 0
      jumpForward:
        clip1: {fileID: 0}
        clip2: {fileID: 0}
        clip3: {fileID: 0}
        clip4: {fileID: 0}
        clip5: {fileID: 0}
        clip6: {fileID: 0}
        wrapMode: 8
        autoSpeed: 1
        animationSpeed: 1
        restingClipInterval: 6
        overrideBlendingIn: 0
        overrideBlendingOut: 0
        blendingIn: 0
        blendingOut: 0
        invincible: 0
        disableHeadLook: 0
        applyRootMotion: 0
        downClip: 0
        soundEffects: []
        continuousSound: 0
        particleEffect:
          editorToggle: 0
          prefab: {fileID: 0}
          duration: 1
          stick: 0
          destroyOnMoveOver: 0
          followRotation: 0
          lockLocalPosition: 0
          mirrorOn2PSide: 0
          initialRotation: {x: 0, y: 0, z: 0}
          positionOffSet: {x: 0, y: 0, z: 0}
          bodyPart: 0
        reference: 0
        name: 
        editorToggle: 0
        soundEffectsToggle: 0
      fallStraight:
        clip1: {fileID: 7400000, guid: 28088179563f16949bb8d5ee4b38e757, type: 3}
        clip2: {fileID: 0}
        clip3: {fileID: 0}
        clip4: {fileID: 0}
        clip5: {fileID: 0}
        clip6: {fileID: 0}
        wrapMode: 8
        autoSpeed: 1
        animationSpeed: 1
        restingClipInterval: 6
        overrideBlendingIn: 0
        overrideBlendingOut: 0
        blendingIn: 0
        blendingOut: 0
        invincible: 0
        disableHeadLook: 0
        applyRootMotion: 0
        downClip: 0
        soundEffects: []
        continuousSound: 0
        particleEffect:
          editorToggle: 0
          prefab: {fileID: 0}
          duration: 1
          stick: 0
          destroyOnMoveOver: 0
          followRotation: 0
          lockLocalPosition: 0
          mirrorOn2PSide: 0
          initialRotation: {x: 0, y: 0, z: 0}
          positionOffSet: {x: 0, y: 0, z: 0}
          bodyPart: 0
        reference: 0
        name: 
        editorToggle: 0
        soundEffectsToggle: 0
      fallBack:
        clip1: {fileID: 0}
        clip2: {fileID: 0}
        clip3: {fileID: 0}
        clip4: {fileID: 0}
        clip5: {fileID: 0}
        clip6: {fileID: 0}
        wrapMode: 8
        autoSpeed: 1
        animationSpeed: 1
        restingClipInterval: 6
        overrideBlendingIn: 0
        overrideBlendingOut: 0
        blendingIn: 0
        blendingOut: 0
        invincible: 0
        disableHeadLook: 0
        applyRootMotion: 0
        downClip: 0
        soundEffects: []
        continuousSound: 0
        particleEffect:
          editorToggle: 0
          prefab: {fileID: 0}
          duration: 1
          stick: 0
          destroyOnMoveOver: 0
          followRotation: 0
          lockLocalPosition: 0
          mirrorOn2PSide: 0
          initialRotation: {x: 0, y: 0, z: 0}
          positionOffSet: {x: 0, y: 0, z: 0}
          bodyPart: 0
        reference: 0
        name: 
        editorToggle: 0
        soundEffectsToggle: 0
      fallForward:
        clip1: {fileID: 0}
        clip2: {fileID: 0}
        clip3: {fileID: 0}
        clip4: {fileID: 0}
        clip5: {fileID: 0}
        clip6: {fileID: 0}
        wrapMode: 8
        autoSpeed: 1
        animationSpeed: 1
        restingClipInterval: 6
        overrideBlendingIn: 0
        overrideBlendingOut: 0
        blendingIn: 0
        blendingOut: 0
        invincible: 0
        disableHeadLook: 0
        applyRootMotion: 0
        downClip: 0
        soundEffects: []
        continuousSound: 0
        particleEffect:
          editorToggle: 0
          prefab: {fileID: 0}
          duration: 1
          stick: 0
          destroyOnMoveOver: 0
          followRotation: 0
          lockLocalPosition: 0
          mirrorOn2PSide: 0
          initialRotation: {x: 0, y: 0, z: 0}
          positionOffSet: {x: 0, y: 0, z: 0}
          bodyPart: 0
        reference: 0
        name: 
        editorToggle: 0
        soundEffectsToggle: 0
      landing:
        clip1: {fileID: 7400000, guid: 5616ee95c3e1d1942a64eb85548adaf9, type: 3}
        clip2: {fileID: 0}
        clip3: {fileID: 0}
        clip4: {fileID: 0}
        clip5: {fileID: 0}
        clip6: {fileID: 0}
        wrapMode: 1
        autoSpeed: 1
        animationSpeed: 1
        restingClipInterval: 6
        overrideBlendingIn: 0
        overrideBlendingOut: 0
        blendingIn: 0
        blendingOut: 0
        invincible: 0
        disableHeadLook: 0
        applyRootMotion: 0
        downClip: 0
        soundEffects: []
        continuousSound: 0
        particleEffect:
          editorToggle: 0
          prefab: {fileID: 0}
          duration: 1
          stick: 0
          destroyOnMoveOver: 0
          followRotation: 0
          lockLocalPosition: 0
          mirrorOn2PSide: 0
          initialRotation: {x: 0, y: 0, z: 0}
          positionOffSet: {x: 0, y: 0, z: 0}
          bodyPart: 0
        reference: 0
        name: 
        editorToggle: 0
        soundEffectsToggle: 0
      crouching:
        clip1: {fileID: 7400000, guid: 342517005227b3c44a64bdf3bf2545da, type: 3}
        clip2: {fileID: 0}
        clip3: {fileID: 0}
        clip4: {fileID: 0}
        clip5: {fileID: 0}
        clip6: {fileID: 0}
        wrapMode: 2
        autoSpeed: 0
        animationSpeed: 1
        restingClipInterval: 6
        overrideBlendingIn: 0
        overrideBlendingOut: 0
        blendingIn: 0
        blendingOut: 0
        invincible: 0
        disableHeadLook: 0
        applyRootMotion: 0
        downClip: 0
        soundEffects: []
        continuousSound: 0
        particleEffect:
          editorToggle: 0
          prefab: {fileID: 0}
          duration: 1
          stick: 0
          destroyOnMoveOver: 0
          followRotation: 0
          lockLocalPosition: 0
          mirrorOn2PSide: 0
          initialRotation: {x: 0, y: 0, z: 0}
          positionOffSet: {x: 0, y: 0, z: 0}
          bodyPart: 0
        reference: 0
        name: 
        editorToggle: 0
        soundEffectsToggle: 0
      blockingCrouchingPose:
        clip1: {fileID: 7400000, guid: 36e9945518a87e6488af0b83c6549123, type: 3}
        clip2: {fileID: 0}
        clip3: {fileID: 0}
        clip4: {fileID: 0}
        clip5: {fileID: 0}
        clip6: {fileID: 0}
        wrapMode: 8
        autoSpeed: 0
        animationSpeed: 1
        restingClipInterval: 6
        overrideBlendingIn: 0
        overrideBlendingOut: 0
        blendingIn: 0
        blendingOut: 0
        invincible: 0
        disableHeadLook: 0
        applyRootMotion: 0
        downClip: 0
        soundEffects: []
        continuousSound: 0
        particleEffect:
          editorToggle: 0
          prefab: {fileID: 0}
          duration: 1
          stick: 0
          destroyOnMoveOver: 0
          followRotation: 0
          lockLocalPosition: 0
          mirrorOn2PSide: 0
          initialRotation: {x: 0, y: 0, z: 0}
          positionOffSet: {x: 0, y: 0, z: 0}
          bodyPart: 0
        reference: 0
        name: 
        editorToggle: 0
        soundEffectsToggle: 0
      blockingCrouchingHit:
        clip1: {fileID: 7400000, guid: 36e9945518a87e6488af0b83c6549123, type: 3}
        clip2: {fileID: 0}
        clip3: {fileID: 0}
        clip4: {fileID: 0}
        clip5: {fileID: 0}
        clip6: {fileID: 0}
        wrapMode: 1
        autoSpeed: 1
        animationSpeed: 1
        restingClipInterval: 6
        overrideBlendingIn: 0
        overrideBlendingOut: 0
        blendingIn: 0
        blendingOut: 0
        invincible: 0
        disableHeadLook: 0
        applyRootMotion: 0
        downClip: 0
        soundEffects: []
        continuousSound: 0
        particleEffect:
          editorToggle: 0
          prefab: {fileID: 0}
          duration: 1
          stick: 0
          destroyOnMoveOver: 0
          followRotation: 0
          lockLocalPosition: 0
          mirrorOn2PSide: 0
          initialRotation: {x: 0, y: 0, z: 0}
          positionOffSet: {x: 0, y: 0, z: 0}
          bodyPart: 0
        reference: 0
        name: 
        editorToggle: 0
        soundEffectsToggle: 0
      blockingHighPose:
        clip1: {fileID: 7400000, guid: e000754e703d3ed4fa662405ce436aed, type: 3}
        clip2: {fileID: 0}
        clip3: {fileID: 0}
        clip4: {fileID: 0}
        clip5: {fileID: 0}
        clip6: {fileID: 0}
        wrapMode: 8
        autoSpeed: 0
        animationSpeed: 1
        restingClipInterval: 6
        overrideBlendingIn: 0
        overrideBlendingOut: 0
        blendingIn: 0
        blendingOut: 0
        invincible: 0
        disableHeadLook: 0
        applyRootMotion: 0
        downClip: 0
        soundEffects: []
        continuousSound: 0
        particleEffect:
          editorToggle: 0
          prefab: {fileID: 0}
          duration: 1
          stick: 0
          destroyOnMoveOver: 0
          followRotation: 0
          lockLocalPosition: 0
          mirrorOn2PSide: 0
          initialRotation: {x: 0, y: 0, z: 0}
          positionOffSet: {x: 0, y: 0, z: 0}
          bodyPart: 0
        reference: 0
        name: 
        editorToggle: 0
        soundEffectsToggle: 0
      blockingHighHit:
        clip1: {fileID: 7400000, guid: e000754e703d3ed4fa662405ce436aed, type: 3}
        clip2: {fileID: 0}
        clip3: {fileID: 0}
        clip4: {fileID: 0}
        clip5: {fileID: 0}
        clip6: {fileID: 0}
        wrapMode: 1
        autoSpeed: 1
        animationSpeed: 1
        restingClipInterval: 6
        overrideBlendingIn: 0
        overrideBlendingOut: 0
        blendingIn: 0
        blendingOut: 0
        invincible: 0
        disableHeadLook: 0
        applyRootMotion: 0
        downClip: 0
        soundEffects: []
        continuousSound: 0
        particleEffect:
          editorToggle: 0
          prefab: {fileID: 0}
          duration: 1
          stick: 0
          destroyOnMoveOver: 0
          followRotation: 0
          lockLocalPosition: 0
          mirrorOn2PSide: 0
          initialRotation: {x: 0, y: 0, z: 0}
          positionOffSet: {x: 0, y: 0, z: 0}
          bodyPart: 0
        reference: 0
        name: 
        editorToggle: 0
        soundEffectsToggle: 0
      blockingLowHit:
        clip1: {fileID: 0}
        clip2: {fileID: 0}
        clip3: {fileID: 0}
        clip4: {fileID: 0}
        clip5: {fileID: 0}
        clip6: {fileID: 0}
        wrapMode: 1
        autoSpeed: 1
        animationSpeed: 1
        restingClipInterval: 6
        overrideBlendingIn: 0
        overrideBlendingOut: 0
        blendingIn: 0
        blendingOut: 0
        invincible: 0
        disableHeadLook: 0
        applyRootMotion: 0
        downClip: 0
        soundEffects: []
        continuousSound: 0
        particleEffect:
          editorToggle: 0
          prefab: {fileID: 0}
          duration: 1
          stick: 0
          destroyOnMoveOver: 0
          followRotation: 0
          lockLocalPosition: 0
          mirrorOn2PSide: 0
          initialRotation: {x: 0, y: 0, z: 0}
          positionOffSet: {x: 0, y: 0, z: 0}
          bodyPart: 0
        reference: 0
        name: 
        editorToggle: 0
        soundEffectsToggle: 0
      blockingAirPose:
        clip1: {fileID: 0}
        clip2: {fileID: 0}
        clip3: {fileID: 0}
        clip4: {fileID: 0}
        clip5: {fileID: 0}
        clip6: {fileID: 0}
        wrapMode: 8
        autoSpeed: 0
        animationSpeed: 1
        restingClipInterval: 6
        overrideBlendingIn: 0
        overrideBlendingOut: 0
        blendingIn: 0
        blendingOut: 0
        invincible: 0
        disableHeadLook: 0
        applyRootMotion: 0
        downClip: 0
        soundEffects: []
        continuousSound: 0
        particleEffect:
          editorToggle: 0
          prefab: {fileID: 0}
          duration: 1
          stick: 0
          destroyOnMoveOver: 0
          followRotation: 0
          lockLocalPosition: 0
          mirrorOn2PSide: 0
          initialRotation: {x: 0, y: 0, z: 0}
          positionOffSet: {x: 0, y: 0, z: 0}
          bodyPart: 0
        reference: 0
        name: 
        editorToggle: 0
        soundEffectsToggle: 0
      blockingAirHit:
        clip1: {fileID: 0}
        clip2: {fileID: 0}
        clip3: {fileID: 0}
        clip4: {fileID: 0}
        clip5: {fileID: 0}
        clip6: {fileID: 0}
        wrapMode: 1
        autoSpeed: 1
        animationSpeed: 1
        restingClipInterval: 6
        overrideBlendingIn: 0
        overrideBlendingOut: 0
        blendingIn: 0
        blendingOut: 0
        invincible: 0
        disableHeadLook: 0
        applyRootMotion: 0
        downClip: 0
        soundEffects: []
        continuousSound: 0
        particleEffect:
          editorToggle: 0
          prefab: {fileID: 0}
          duration: 1
          stick: 0
          destroyOnMoveOver: 0
          followRotation: 0
          lockLocalPosition: 0
          mirrorOn2PSide: 0
          initialRotation: {x: 0, y: 0, z: 0}
          positionOffSet: {x: 0, y: 0, z: 0}
          bodyPart: 0
        reference: 0
        name: 
        editorToggle: 0
        soundEffectsToggle: 0
      parryCrouching:
        clip1: {fileID: 7400000, guid: 36e9945518a87e6488af0b83c6549123, type: 3}
        clip2: {fileID: 0}
        clip3: {fileID: 0}
        clip4: {fileID: 0}
        clip5: {fileID: 0}
        clip6: {fileID: 0}
        wrapMode: 1
        autoSpeed: 1
        animationSpeed: 1
        restingClipInterval: 6
        overrideBlendingIn: 0
        overrideBlendingOut: 0
        blendingIn: 0
        blendingOut: 0
        invincible: 0
        disableHeadLook: 0
        applyRootMotion: 0
        downClip: 0
        soundEffects: []
        continuousSound: 0
        particleEffect:
          editorToggle: 0
          prefab: {fileID: 0}
          duration: 1
          stick: 0
          destroyOnMoveOver: 0
          followRotation: 0
          lockLocalPosition: 0
          mirrorOn2PSide: 0
          initialRotation: {x: 0, y: 0, z: 0}
          positionOffSet: {x: 0, y: 0, z: 0}
          bodyPart: 0
        reference: 0
        name: 
        editorToggle: 0
        soundEffectsToggle: 0
      parryHigh:
        clip1: {fileID: 7400000, guid: e000754e703d3ed4fa662405ce436aed, type: 3}
        clip2: {fileID: 0}
        clip3: {fileID: 0}
        clip4: {fileID: 0}
        clip5: {fileID: 0}
        clip6: {fileID: 0}
        wrapMode: 1
        autoSpeed: 1
        animationSpeed: 1
        restingClipInterval: 6
        overrideBlendingIn: 0
        overrideBlendingOut: 0
        blendingIn: 0
        blendingOut: 0
        invincible: 0
        disableHeadLook: 0
        applyRootMotion: 0
        downClip: 0
        soundEffects: []
        continuousSound: 0
        particleEffect:
          editorToggle: 0
          prefab: {fileID: 0}
          duration: 1
          stick: 0
          destroyOnMoveOver: 0
          followRotation: 0
          lockLocalPosition: 0
          mirrorOn2PSide: 0
          initialRotation: {x: 0, y: 0, z: 0}
          positionOffSet: {x: 0, y: 0, z: 0}
          bodyPart: 0
        reference: 0
        name: 
        editorToggle: 0
        soundEffectsToggle: 0
      parryLow:
        clip1: {fileID: 0}
        clip2: {fileID: 0}
        clip3: {fileID: 0}
        clip4: {fileID: 0}
        clip5: {fileID: 0}
        clip6: {fileID: 0}
        wrapMode: 1
        autoSpeed: 1
        animationSpeed: 1
        restingClipInterval: 6
        overrideBlendingIn: 0
        overrideBlendingOut: 0
        blendingIn: 0
        blendingOut: 0
        invincible: 0
        disableHeadLook: 0
        applyRootMotion: 0
        downClip: 0
        soundEffects: []
        continuousSound: 0
        particleEffect:
          editorToggle: 0
          prefab: {fileID: 0}
          duration: 1
          stick: 0
          destroyOnMoveOver: 0
          followRotation: 0
          lockLocalPosition: 0
          mirrorOn2PSide: 0
          initialRotation: {x: 0, y: 0, z: 0}
          positionOffSet: {x: 0, y: 0, z: 0}
          bodyPart: 0
        reference: 0
        name: 
        editorToggle: 0
        soundEffectsToggle: 0
      parryAir:
        clip1: {fileID: 0}
        clip2: {fileID: 0}
        clip3: {fileID: 0}
        clip4: {fileID: 0}
        clip5: {fileID: 0}
        clip6: {fileID: 0}
        wrapMode: 1
        autoSpeed: 1
        animationSpeed: 1
        restingClipInterval: 6
        overrideBlendingIn: 0
        overrideBlendingOut: 0
        blendingIn: 0
        blendingOut: 0
        invincible: 0
        disableHeadLook: 0
        applyRootMotion: 0
        downClip: 0
        soundEffects: []
        continuousSound: 0
        particleEffect:
          editorToggle: 0
          prefab: {fileID: 0}
          duration: 1
          stick: 0
          destroyOnMoveOver: 0
          followRotation: 0
          lockLocalPosition: 0
          mirrorOn2PSide: 0
          initialRotation: {x: 0, y: 0, z: 0}
          positionOffSet: {x: 0, y: 0, z: 0}
          bodyPart: 0
        reference: 0
        name: 
        editorToggle: 0
        soundEffectsToggle: 0
      groundBounce:
        clip1: {fileID: 7400000, guid: 177df37cd6aaea84a80325e3ee5e614d, type: 2}
        clip2: {fileID: 0}
        clip3: {fileID: 0}
        clip4: {fileID: 0}
        clip5: {fileID: 0}
        clip6: {fileID: 0}
        wrapMode: 8
        autoSpeed: 0
        animationSpeed: 1
        restingClipInterval: 6
        overrideBlendingIn: 0
        overrideBlendingOut: 0
        blendingIn: 0
        blendingOut: 0
        invincible: 0
        disableHeadLook: 0
        applyRootMotion: 0
        downClip: 0
        soundEffects: []
        continuousSound: 0
        particleEffect:
          editorToggle: 0
          prefab: {fileID: 0}
          duration: 1
          stick: 0
          destroyOnMoveOver: 0
          followRotation: 0
          lockLocalPosition: 0
          mirrorOn2PSide: 0
          initialRotation: {x: 0, y: 0, z: 0}
          positionOffSet: {x: 0, y: 0, z: 0}
          bodyPart: 0
        reference: 0
        name: 
        editorToggle: 0
        soundEffectsToggle: 0
      standingWallBounce:
        clip1: {fileID: 0}
        clip2: {fileID: 0}
        clip3: {fileID: 0}
        clip4: {fileID: 0}
        clip5: {fileID: 0}
        clip6: {fileID: 0}
        wrapMode: 0
        autoSpeed: 1
        animationSpeed: 1
        restingClipInterval: 6
        overrideBlendingIn: 0
        overrideBlendingOut: 0
        blendingIn: 0
        blendingOut: 0
        invincible: 0
        disableHeadLook: 0
        applyRootMotion: 0
        downClip: 0
        soundEffects: []
        continuousSound: 0
        particleEffect:
          editorToggle: 0
          prefab: {fileID: 0}
          duration: 1
          stick: 0
          destroyOnMoveOver: 0
          followRotation: 0
          lockLocalPosition: 0
          mirrorOn2PSide: 0
          initialRotation: {x: 0, y: 0, z: 0}
          positionOffSet: {x: 0, y: 0, z: 0}
          bodyPart: 0
        reference: 0
        name: 
        editorToggle: 0
        soundEffectsToggle: 0
      standingWallBounceKnockdown:
        clip1: {fileID: 0}
        clip2: {fileID: 0}
        clip3: {fileID: 0}
        clip4: {fileID: 0}
        clip5: {fileID: 0}
        clip6: {fileID: 0}
        wrapMode: 0
        autoSpeed: 1
        animationSpeed: 1
        restingClipInterval: 6
        overrideBlendingIn: 0
        overrideBlendingOut: 0
        blendingIn: 0
        blendingOut: 0
        invincible: 0
        disableHeadLook: 0
        applyRootMotion: 0
        downClip: 0
        soundEffects: []
        continuousSound: 0
        particleEffect:
          editorToggle: 0
          prefab: {fileID: 0}
          duration: 1
          stick: 0
          destroyOnMoveOver: 0
          followRotation: 0
          lockLocalPosition: 0
          mirrorOn2PSide: 0
          initialRotation: {x: 0, y: 0, z: 0}
          positionOffSet: {x: 0, y: 0, z: 0}
          bodyPart: 0
        reference: 0
        name: 
        editorToggle: 0
        soundEffectsToggle: 0
      airWallBounce:
        clip1: {fileID: 0}
        clip2: {fileID: 0}
        clip3: {fileID: 0}
        clip4: {fileID: 0}
        clip5: {fileID: 0}
        clip6: {fileID: 0}
        wrapMode: 0
        autoSpeed: 1
        animationSpeed: 1
        restingClipInterval: 6
        overrideBlendingIn: 0
        overrideBlendingOut: 0
        blendingIn: 0
        blendingOut: 0
        invincible: 0
        disableHeadLook: 0
        applyRootMotion: 0
        downClip: 0
        soundEffects: []
        continuousSound: 0
        particleEffect:
          editorToggle: 0
          prefab: {fileID: 0}
          duration: 1
          stick: 0
          destroyOnMoveOver: 0
          followRotation: 0
          lockLocalPosition: 0
          mirrorOn2PSide: 0
          initialRotation: {x: 0, y: 0, z: 0}
          positionOffSet: {x: 0, y: 0, z: 0}
          bodyPart: 0
        reference: 0
        name: 
        editorToggle: 0
        soundEffectsToggle: 0
      fallingFromGroundBounce:
        clip1: {fileID: 0}
        clip2: {fileID: 0}
        clip3: {fileID: 0}
        clip4: {fileID: 0}
        clip5: {fileID: 0}
        clip6: {fileID: 0}
        wrapMode: 0
        autoSpeed: 1
        animationSpeed: 1
        restingClipInterval: 6
        overrideBlendingIn: 0
        overrideBlendingOut: 0
        blendingIn: 0
        blendingOut: 0
        invincible: 0
        disableHeadLook: 0
        applyRootMotion: 0
        downClip: 0
        soundEffects: []
        continuousSound: 0
        particleEffect:
          editorToggle: 0
          prefab: {fileID: 0}
          duration: 1
          stick: 0
          destroyOnMoveOver: 0
          followRotation: 0
          lockLocalPosition: 0
          mirrorOn2PSide: 0
          initialRotation: {x: 0, y: 0, z: 0}
          positionOffSet: {x: 0, y: 0, z: 0}
          bodyPart: 0
        reference: 0
        name: 
        editorToggle: 0
        soundEffectsToggle: 0
      fallingFromAirHit:
        clip1: {fileID: 0}
        clip2: {fileID: 0}
        clip3: {fileID: 0}
        clip4: {fileID: 0}
        clip5: {fileID: 0}
        clip6: {fileID: 0}
        wrapMode: 0
        autoSpeed: 1
        animationSpeed: 1
        restingClipInterval: 6
        overrideBlendingIn: 0
        overrideBlendingOut: 0
        blendingIn: 0
        blendingOut: 0
        invincible: 0
        disableHeadLook: 0
        applyRootMotion: 0
        downClip: 0
        soundEffects: []
        continuousSound: 0
        particleEffect:
          editorToggle: 0
          prefab: {fileID: 0}
          duration: 1
          stick: 0
          destroyOnMoveOver: 0
          followRotation: 0
          lockLocalPosition: 0
          mirrorOn2PSide: 0
          initialRotation: {x: 0, y: 0, z: 0}
          positionOffSet: {x: 0, y: 0, z: 0}
          bodyPart: 0
        reference: 0
        name: 
        editorToggle: 0
        soundEffectsToggle: 0
      fallDown:
        clip1: {fileID: 7400000, guid: 910f7fee578b9ce4e98dca8b8b2ec796, type: 2}
        clip2: {fileID: 0}
        clip3: {fileID: 0}
        clip4: {fileID: 0}
        clip5: {fileID: 0}
        clip6: {fileID: 0}
        wrapMode: 8
        autoSpeed: 0
        animationSpeed: 1
        restingClipInterval: 6
        overrideBlendingIn: 0
        overrideBlendingOut: 0
        blendingIn: 0
        blendingOut: 0
        invincible: 0
        disableHeadLook: 0
        applyRootMotion: 0
        downClip: 0
        soundEffects: []
        continuousSound: 0
        particleEffect:
          editorToggle: 0
          prefab: {fileID: 0}
          duration: 1
          stick: 0
          destroyOnMoveOver: 0
          followRotation: 0
          lockLocalPosition: 0
          mirrorOn2PSide: 0
          initialRotation: {x: 0, y: 0, z: 0}
          positionOffSet: {x: 0, y: 0, z: 0}
          bodyPart: 0
        reference: 0
        name: 
        editorToggle: 0
        soundEffectsToggle: 0
      airRecovery:
        clip1: {fileID: 7400000, guid: 27655009745692a4482e591bf1920909, type: 2}
        clip2: {fileID: 0}
        clip3: {fileID: 0}
        clip4: {fileID: 0}
        clip5: {fileID: 0}
        clip6: {fileID: 0}
        wrapMode: 8
        autoSpeed: 1
        animationSpeed: 1
        restingClipInterval: 6
        overrideBlendingIn: 0
        overrideBlendingOut: 0
        blendingIn: 0
        blendingOut: 0
        invincible: 1
        disableHeadLook: 0
        applyRootMotion: 0
        downClip: 0
        soundEffects: []
        continuousSound: 0
        particleEffect:
          editorToggle: 0
          prefab: {fileID: 0}
          duration: 1
          stick: 0
          destroyOnMoveOver: 0
          followRotation: 0
          lockLocalPosition: 0
          mirrorOn2PSide: 0
          initialRotation: {x: 0, y: 0, z: 0}
          positionOffSet: {x: 0, y: 0, z: 0}
          bodyPart: 0
        reference: 0
        name: 
        editorToggle: 0
        soundEffectsToggle: 0
      getHitCrouching:
        clip1: {fileID: 7400000, guid: 666157af11b78d8419412ec9e41840a5, type: 2}
        clip2: {fileID: 0}
        clip3: {fileID: 0}
        clip4: {fileID: 0}
        clip5: {fileID: 0}
        clip6: {fileID: 0}
        wrapMode: 1
        autoSpeed: 1
        animationSpeed: 1
        restingClipInterval: 6
        overrideBlendingIn: 1
        overrideBlendingOut: 0
        blendingIn: 0
        blendingOut: 0
        invincible: 0
        disableHeadLook: 0
        applyRootMotion: 0
        downClip: 0
        soundEffects: []
        continuousSound: 0
        particleEffect:
          editorToggle: 0
          prefab: {fileID: 0}
          duration: 1
          stick: 0
          destroyOnMoveOver: 0
          followRotation: 0
          lockLocalPosition: 0
          mirrorOn2PSide: 0
          initialRotation: {x: 0, y: 0, z: 0}
          positionOffSet: {x: 0, y: 0, z: 0}
          bodyPart: 0
        reference: 0
        name: 
        editorToggle: 0
        soundEffectsToggle: 0
      getHitHigh:
        clip1: {fileID: 7400000, guid: a8bc86bbf2970214592e96995fc3a49d, type: 2}
        clip2: {fileID: 7400000, guid: 4896a2b58fbde7d47a92afa1002c7377, type: 2}
        clip3: {fileID: 7400000, guid: 9de2748ca905e1144925cc6e39b820a4, type: 2}
        clip4: {fileID: 0}
        clip5: {fileID: 0}
        clip6: {fileID: 0}
        wrapMode: 1
        autoSpeed: 1
        animationSpeed: 1
        restingClipInterval: 6
        overrideBlendingIn: 1
        overrideBlendingOut: 0
        blendingIn: 0
        blendingOut: 0
        invincible: 0
        disableHeadLook: 0
        applyRootMotion: 0
        downClip: 0
        soundEffects: []
        continuousSound: 0
        particleEffect:
          editorToggle: 0
          prefab: {fileID: 0}
          duration: 1
          stick: 0
          destroyOnMoveOver: 0
          followRotation: 0
          lockLocalPosition: 0
          mirrorOn2PSide: 0
          initialRotation: {x: 0, y: 0, z: 0}
          positionOffSet: {x: 0, y: 0, z: 0}
          bodyPart: 0
        reference: 0
        name: 
        editorToggle: 0
        soundEffectsToggle: 0
      getHitLow:
        clip1: {fileID: 7400000, guid: ff5c50217b715fd439db54203971af38, type: 2}
        clip2: {fileID: 7400000, guid: 1821a41c2fdc17f4087eec695e4636c4, type: 2}
        clip3: {fileID: 7400000, guid: 5bc828a2f5a4a1b47b71aa6a440b41fa, type: 2}
        clip4: {fileID: 0}
        clip5: {fileID: 0}
        clip6: {fileID: 0}
        wrapMode: 1
        autoSpeed: 1
        animationSpeed: 1
        restingClipInterval: 6
        overrideBlendingIn: 1
        overrideBlendingOut: 0
        blendingIn: 0
        blendingOut: 0
        invincible: 0
        disableHeadLook: 0
        applyRootMotion: 0
        downClip: 0
        soundEffects: []
        continuousSound: 0
        particleEffect:
          editorToggle: 0
          prefab: {fileID: 0}
          duration: 1
          stick: 0
          destroyOnMoveOver: 0
          followRotation: 0
          lockLocalPosition: 0
          mirrorOn2PSide: 0
          initialRotation: {x: 0, y: 0, z: 0}
          positionOffSet: {x: 0, y: 0, z: 0}
          bodyPart: 0
        reference: 0
        name: 
        editorToggle: 0
        soundEffectsToggle: 0
      getHitHighKnockdown:
        clip1: {fileID: 7400000, guid: 0e3f26b920195fa448e608dfe40d3515, type: 2}
        clip2: {fileID: 0}
        clip3: {fileID: 0}
        clip4: {fileID: 0}
        clip5: {fileID: 0}
        clip6: {fileID: 0}
        wrapMode: 8
        autoSpeed: 0
        animationSpeed: 1
        restingClipInterval: 6
        overrideBlendingIn: 0
        overrideBlendingOut: 0
        blendingIn: 0
        blendingOut: 0
        invincible: 0
        disableHeadLook: 0
        applyRootMotion: 0
        downClip: 0
        soundEffects: []
        continuousSound: 0
        particleEffect:
          editorToggle: 0
          prefab: {fileID: 0}
          duration: 1
          stick: 0
          destroyOnMoveOver: 0
          followRotation: 0
          lockLocalPosition: 0
          mirrorOn2PSide: 0
          initialRotation: {x: 0, y: 0, z: 0}
          positionOffSet: {x: 0, y: 0, z: 0}
          bodyPart: 0
        reference: 0
        name: 
        editorToggle: 0
        soundEffectsToggle: 0
      getHitMidKnockdown:
        clip1: {fileID: 0}
        clip2: {fileID: 0}
        clip3: {fileID: 0}
        clip4: {fileID: 0}
        clip5: {fileID: 0}
        clip6: {fileID: 0}
        wrapMode: 0
        autoSpeed: 1
        animationSpeed: 1
        restingClipInterval: 6
        overrideBlendingIn: 0
        overrideBlendingOut: 0
        blendingIn: 0
        blendingOut: 0
        invincible: 0
        disableHeadLook: 0
        applyRootMotion: 0
        downClip: 0
        soundEffects: []
        continuousSound: 0
        particleEffect:
          editorToggle: 0
          prefab: {fileID: 0}
          duration: 1
          stick: 0
          destroyOnMoveOver: 0
          followRotation: 0
          lockLocalPosition: 0
          mirrorOn2PSide: 0
          initialRotation: {x: 0, y: 0, z: 0}
          positionOffSet: {x: 0, y: 0, z: 0}
          bodyPart: 0
        reference: 0
        name: 
        editorToggle: 0
        soundEffectsToggle: 0
      getHitAir:
        clip1: {fileID: 7400000, guid: bdf65cbababe8804495fd79ab52ec2c0, type: 2}
        clip2: {fileID: 0}
        clip3: {fileID: 0}
        clip4: {fileID: 0}
        clip5: {fileID: 0}
        clip6: {fileID: 0}
        wrapMode: 8
        autoSpeed: 1
        animationSpeed: 1
        restingClipInterval: 6
        overrideBlendingIn: 0
        overrideBlendingOut: 0
        blendingIn: 0
        blendingOut: 0
        invincible: 0
        disableHeadLook: 0
        applyRootMotion: 0
        downClip: 0
        soundEffects: []
        continuousSound: 0
        particleEffect:
          editorToggle: 0
          prefab: {fileID: 0}
          duration: 1
          stick: 0
          destroyOnMoveOver: 0
          followRotation: 0
          lockLocalPosition: 0
          mirrorOn2PSide: 0
          initialRotation: {x: 0, y: 0, z: 0}
          positionOffSet: {x: 0, y: 0, z: 0}
          bodyPart: 0
        reference: 0
        name: 
        editorToggle: 0
        soundEffectsToggle: 0
      getHitCrumple:
        clip1: {fileID: 7400000, guid: 59008fe748e439d4b9c7a0e749a839b2, type: 2}
        clip2: {fileID: 0}
        clip3: {fileID: 0}
        clip4: {fileID: 0}
        clip5: {fileID: 0}
        clip6: {fileID: 0}
        wrapMode: 8
        autoSpeed: 1
        animationSpeed: 1
        restingClipInterval: 6
        overrideBlendingIn: 0
        overrideBlendingOut: 0
        blendingIn: 0
        blendingOut: 0
        invincible: 0
        disableHeadLook: 0
        applyRootMotion: 0
        downClip: 0
        soundEffects: []
        continuousSound: 0
        particleEffect:
          editorToggle: 0
          prefab: {fileID: 0}
          duration: 1
          stick: 0
          destroyOnMoveOver: 0
          followRotation: 0
          lockLocalPosition: 0
          mirrorOn2PSide: 0
          initialRotation: {x: 0, y: 0, z: 0}
          positionOffSet: {x: 0, y: 0, z: 0}
          bodyPart: 0
        reference: 0
        name: 
        editorToggle: 0
        soundEffectsToggle: 0
      getHitKnockBack:
        clip1: {fileID: 7400000, guid: 5ca9dedde224b0e4990174b9ca6f7688, type: 3}
        clip2: {fileID: 0}
        clip3: {fileID: 0}
        clip4: {fileID: 0}
        clip5: {fileID: 0}
        clip6: {fileID: 0}
        wrapMode: 8
        autoSpeed: 1
        animationSpeed: 1
        restingClipInterval: 6
        overrideBlendingIn: 0
        overrideBlendingOut: 0
        blendingIn: 0
        blendingOut: 0
        invincible: 0
        disableHeadLook: 0
        applyRootMotion: 0
        downClip: 0
        soundEffects: []
        continuousSound: 0
        particleEffect:
          editorToggle: 0
          prefab: {fileID: 0}
          duration: 1
          stick: 0
          destroyOnMoveOver: 0
          followRotation: 0
          lockLocalPosition: 0
          mirrorOn2PSide: 0
          initialRotation: {x: 0, y: 0, z: 0}
          positionOffSet: {x: 0, y: 0, z: 0}
          bodyPart: 0
        reference: 0
        name: 
        editorToggle: 0
        soundEffectsToggle: 0
      getHitSweep:
        clip1: {fileID: 7400000, guid: 0b96561652ffe4041be5c9e1d591a61e, type: 2}
        clip2: {fileID: 0}
        clip3: {fileID: 0}
        clip4: {fileID: 0}
        clip5: {fileID: 0}
        clip6: {fileID: 0}
        wrapMode: 8
        autoSpeed: 0
        animationSpeed: 1.4
        restingClipInterval: 6
        overrideBlendingIn: 0
        overrideBlendingOut: 0
        blendingIn: 0
        blendingOut: 0
        invincible: 0
        disableHeadLook: 0
        applyRootMotion: 0
        downClip: 0
        soundEffects: []
        continuousSound: 0
        particleEffect:
          editorToggle: 0
          prefab: {fileID: 0}
          duration: 1
          stick: 0
          destroyOnMoveOver: 0
          followRotation: 0
          lockLocalPosition: 0
          mirrorOn2PSide: 0
          initialRotation: {x: 0, y: 0, z: 0}
          positionOffSet: {x: 0, y: 0, z: 0}
          bodyPart: 0
        reference: 0
        name: 
        editorToggle: 0
        soundEffectsToggle: 0
      standUp:
        clip1: {fileID: 7400000, guid: b20342a58a57adb44ad9905a40f226c4, type: 2}
        clip2: {fileID: 7400000, guid: b20342a58a57adb44ad9905a40f226c4, type: 2}
        clip3: {fileID: 7400000, guid: b20342a58a57adb44ad9905a40f226c4, type: 2}
        clip4: {fileID: 7400000, guid: aa4531cce5cac174fa69bc653c01fe60, type: 2}
        clip5: {fileID: 7400000, guid: be5340406b1b5784eb20823c3381abf0, type: 2}
        clip6: {fileID: 0}
        wrapMode: 8
        autoSpeed: 1
        animationSpeed: 1
        restingClipInterval: 6
        overrideBlendingIn: 0
        overrideBlendingOut: 0
        blendingIn: 0
        blendingOut: 0
        invincible: 0
        disableHeadLook: 0
        applyRootMotion: 0
        downClip: 0
        soundEffects: []
        continuousSound: 0
        particleEffect:
          editorToggle: 0
          prefab: {fileID: 0}
          duration: 1
          stick: 0
          destroyOnMoveOver: 0
          followRotation: 0
          lockLocalPosition: 0
          mirrorOn2PSide: 0
          initialRotation: {x: 0, y: 0, z: 0}
          positionOffSet: {x: 0, y: 0, z: 0}
          bodyPart: 0
        reference: 0
        name: 
        editorToggle: 0
        soundEffectsToggle: 0
      standUpFromAirHit:
        clip1: {fileID: 0}
        clip2: {fileID: 0}
        clip3: {fileID: 0}
        clip4: {fileID: 0}
        clip5: {fileID: 0}
        clip6: {fileID: 0}
        wrapMode: 0
        autoSpeed: 1
        animationSpeed: 1
        restingClipInterval: 6
        overrideBlendingIn: 0
        overrideBlendingOut: 0
        blendingIn: 0
        blendingOut: 0
        invincible: 0
        disableHeadLook: 0
        applyRootMotion: 0
        downClip: 0
        soundEffects: []
        continuousSound: 0
        particleEffect:
          editorToggle: 0
          prefab: {fileID: 0}
          duration: 1
          stick: 0
          destroyOnMoveOver: 0
          followRotation: 0
          lockLocalPosition: 0
          mirrorOn2PSide: 0
          initialRotation: {x: 0, y: 0, z: 0}
          positionOffSet: {x: 0, y: 0, z: 0}
          bodyPart: 0
        reference: 0
        name: 
        editorToggle: 0
        soundEffectsToggle: 0
      standUpFromKnockBack:
        clip1: {fileID: 0}
        clip2: {fileID: 0}
        clip3: {fileID: 0}
        clip4: {fileID: 0}
        clip5: {fileID: 0}
        clip6: {fileID: 0}
        wrapMode: 0
        autoSpeed: 1
        animationSpeed: 1
        restingClipInterval: 6
        overrideBlendingIn: 0
        overrideBlendingOut: 0
        blendingIn: 0
        blendingOut: 0
        invincible: 0
        disableHeadLook: 0
        applyRootMotion: 0
        downClip: 0
        soundEffects: []
        continuousSound: 0
        particleEffect:
          editorToggle: 0
          prefab: {fileID: 0}
          duration: 1
          stick: 0
          destroyOnMoveOver: 0
          followRotation: 0
          lockLocalPosition: 0
          mirrorOn2PSide: 0
          initialRotation: {x: 0, y: 0, z: 0}
          positionOffSet: {x: 0, y: 0, z: 0}
          bodyPart: 0
        reference: 0
        name: 
        editorToggle: 0
        soundEffectsToggle: 0
      standUpFromStandingHighHit:
        clip1: {fileID: 0}
        clip2: {fileID: 0}
        clip3: {fileID: 0}
        clip4: {fileID: 0}
        clip5: {fileID: 0}
        clip6: {fileID: 0}
        wrapMode: 0
        autoSpeed: 1
        animationSpeed: 1
        restingClipInterval: 6
        overrideBlendingIn: 0
        overrideBlendingOut: 0
        blendingIn: 0
        blendingOut: 0
        invincible: 0
        disableHeadLook: 0
        applyRootMotion: 0
        downClip: 0
        soundEffects: []
        continuousSound: 0
        particleEffect:
          editorToggle: 0
          prefab: {fileID: 0}
          duration: 1
          stick: 0
          destroyOnMoveOver: 0
          followRotation: 0
          lockLocalPosition: 0
          mirrorOn2PSide: 0
          initialRotation: {x: 0, y: 0, z: 0}
          positionOffSet: {x: 0, y: 0, z: 0}
          bodyPart: 0
        reference: 0
        name: 
        editorToggle: 0
        soundEffectsToggle: 0
      standUpFromStandingMidHit:
        clip1: {fileID: 0}
        clip2: {fileID: 0}
        clip3: {fileID: 0}
        clip4: {fileID: 0}
        clip5: {fileID: 0}
        clip6: {fileID: 0}
        wrapMode: 0
        autoSpeed: 1
        animationSpeed: 1
        restingClipInterval: 6
        overrideBlendingIn: 0
        overrideBlendingOut: 0
        blendingIn: 0
        blendingOut: 0
        invincible: 0
        disableHeadLook: 0
        applyRootMotion: 0
        downClip: 0
        soundEffects: []
        continuousSound: 0
        particleEffect:
          editorToggle: 0
          prefab: {fileID: 0}
          duration: 1
          stick: 0
          destroyOnMoveOver: 0
          followRotation: 0
          lockLocalPosition: 0
          mirrorOn2PSide: 0
          initialRotation: {x: 0, y: 0, z: 0}
          positionOffSet: {x: 0, y: 0, z: 0}
          bodyPart: 0
        reference: 0
        name: 
        editorToggle: 0
        soundEffectsToggle: 0
      standUpFromCrumple:
        clip1: {fileID: 0}
        clip2: {fileID: 0}
        clip3: {fileID: 0}
        clip4: {fileID: 0}
        clip5: {fileID: 0}
        clip6: {fileID: 0}
        wrapMode: 0
        autoSpeed: 1
        animationSpeed: 1
        restingClipInterval: 6
        overrideBlendingIn: 0
        overrideBlendingOut: 0
        blendingIn: 0
        blendingOut: 0
        invincible: 0
        disableHeadLook: 0
        applyRootMotion: 0
        downClip: 0
        soundEffects: []
        continuousSound: 0
        particleEffect:
          editorToggle: 0
          prefab: {fileID: 0}
          duration: 1
          stick: 0
          destroyOnMoveOver: 0
          followRotation: 0
          lockLocalPosition: 0
          mirrorOn2PSide: 0
          initialRotation: {x: 0, y: 0, z: 0}
          positionOffSet: {x: 0, y: 0, z: 0}
          bodyPart: 0
        reference: 0
        name: 
        editorToggle: 0
        soundEffectsToggle: 0
      standUpFromSweep:
        clip1: {fileID: 0}
        clip2: {fileID: 0}
        clip3: {fileID: 0}
        clip4: {fileID: 0}
        clip5: {fileID: 0}
        clip6: {fileID: 0}
        wrapMode: 0
        autoSpeed: 1
        animationSpeed: 1
        restingClipInterval: 6
        overrideBlendingIn: 0
        overrideBlendingOut: 0
        blendingIn: 0
        blendingOut: 0
        invincible: 0
        disableHeadLook: 0
        applyRootMotion: 0
        downClip: 0
        soundEffects: []
        continuousSound: 0
        particleEffect:
          editorToggle: 0
          prefab: {fileID: 0}
          duration: 1
          stick: 0
          destroyOnMoveOver: 0
          followRotation: 0
          lockLocalPosition: 0
          mirrorOn2PSide: 0
          initialRotation: {x: 0, y: 0, z: 0}
          positionOffSet: {x: 0, y: 0, z: 0}
          bodyPart: 0
        reference: 0
        name: 
        editorToggle: 0
        soundEffectsToggle: 0
      standUpFromStandingWallBounce:
        clip1: {fileID: 0}
        clip2: {fileID: 0}
        clip3: {fileID: 0}
        clip4: {fileID: 0}
        clip5: {fileID: 0}
        clip6: {fileID: 0}
        wrapMode: 0
        autoSpeed: 1
        animationSpeed: 1
        restingClipInterval: 6
        overrideBlendingIn: 0
        overrideBlendingOut: 0
        blendingIn: 0
        blendingOut: 0
        invincible: 0
        disableHeadLook: 0
        applyRootMotion: 0
        downClip: 0
        soundEffects: []
        continuousSound: 0
        particleEffect:
          editorToggle: 0
          prefab: {fileID: 0}
          duration: 1
          stick: 0
          destroyOnMoveOver: 0
          followRotation: 0
          lockLocalPosition: 0
          mirrorOn2PSide: 0
          initialRotation: {x: 0, y: 0, z: 0}
          positionOffSet: {x: 0, y: 0, z: 0}
          bodyPart: 0
        reference: 0
        name: 
        editorToggle: 0
        soundEffectsToggle: 0
      standUpFromAirWallBounce:
        clip1: {fileID: 0}
        clip2: {fileID: 0}
        clip3: {fileID: 0}
        clip4: {fileID: 0}
        clip5: {fileID: 0}
        clip6: {fileID: 0}
        wrapMode: 0
        autoSpeed: 1
        animationSpeed: 1
        restingClipInterval: 6
        overrideBlendingIn: 0
        overrideBlendingOut: 0
        blendingIn: 0
        blendingOut: 0
        invincible: 0
        disableHeadLook: 0
        applyRootMotion: 0
        downClip: 0
        soundEffects: []
        continuousSound: 0
        particleEffect:
          editorToggle: 0
          prefab: {fileID: 0}
          duration: 1
          stick: 0
          destroyOnMoveOver: 0
          followRotation: 0
          lockLocalPosition: 0
          mirrorOn2PSide: 0
          initialRotation: {x: 0, y: 0, z: 0}
          positionOffSet: {x: 0, y: 0, z: 0}
          bodyPart: 0
        reference: 0
        name: 
        editorToggle: 0
        soundEffectsToggle: 0
      standUpFromGroundBounce:
        clip1: {fileID: 0}
        clip2: {fileID: 0}
        clip3: {fileID: 0}
        clip4: {fileID: 0}
        clip5: {fileID: 0}
        clip6: {fileID: 0}
        wrapMode: 0
        autoSpeed: 1
        animationSpeed: 1
        restingClipInterval: 6
        overrideBlendingIn: 0
        overrideBlendingOut: 0
        blendingIn: 0
        blendingOut: 0
        invincible: 0
        disableHeadLook: 0
        applyRootMotion: 0
        downClip: 0
        soundEffects: []
        continuousSound: 0
        particleEffect:
          editorToggle: 0
          prefab: {fileID: 0}
          duration: 1
          stick: 0
          destroyOnMoveOver: 0
          followRotation: 0
          lockLocalPosition: 0
          mirrorOn2PSide: 0
          initialRotation: {x: 0, y: 0, z: 0}
          positionOffSet: {x: 0, y: 0, z: 0}
          bodyPart: 0
        reference: 0
        name: 
        editorToggle: 0
        soundEffectsToggle: 0
      moveEnabled: 1
      jumpEnabled: 1
      crouchEnabled: 1
      blockEnabled: 1
      parryEnabled: 1
    attackMoves:
    - {fileID: 11400000, guid: 6ce84abc9a49a294d88f6774141d8e68, type: 2}
    - {fileID: 11400000, guid: cb7193b2c1b3e584b9365774fec5c4e5, type: 2}
    - {fileID: 11400000, guid: 8492b50cf14a460419e40836a91345fe, type: 2}
    - {fileID: 11400000, guid: 73e74a565e3202b4aae0dfa41fd89589, type: 2}
    - {fileID: 11400000, guid: a8eb6fa1cf94378458a2273f1be8a1e6, type: 2}
    - {fileID: 11400000, guid: f0a77471119367b42b4c2375dea36ce5, type: 2}
    - {fileID: 11400000, guid: 54a0354c564f5e14182ad4d158414961, type: 2}
    - {fileID: 11400000, guid: 4299973af825880468a12dbb0638e424, type: 2}
    - {fileID: 11400000, guid: 10f89971393404e439529a4a8ce56e1a, type: 2}
    - {fileID: 11400000, guid: 93c9cc6d3ecc6444b88843ad12442065, type: 2}
    - {fileID: 11400000, guid: 618f032560049d843943ce227a2433d2, type: 2}
    - {fileID: 11400000, guid: 709b9a314dc3f4949aeb580ba9805450, type: 2}
    - {fileID: 11400000, guid: d44a5e3cca20413419dbdc311f27085f, type: 2}
    - {fileID: 11400000, guid: 45b37c7ec11226d419c8bd792ae68276, type: 2}
    - {fileID: 11400000, guid: 5ac39a179ba79e54c858bfc1b0f99f00, type: 2}
    - {fileID: 11400000, guid: bdfd93bb315dbe94daf31baf773a2951, type: 2}
    - {fileID: 11400000, guid: 05ff3182617f65c41b342ebf9e4993c8, type: 2}
    - {fileID: 11400000, guid: 9eccffeb955f71f48a849935777a5910, type: 2}
    - {fileID: 11400000, guid: cc6341b01b5d9444eb24dfdbbb0fd90e, type: 2}
    - {fileID: 11400000, guid: f5472965b5719af41a37659ad706b6e6, type: 2}
    - {fileID: 11400000, guid: a1dcede3ea039844a952770ab0eb3427, type: 2}
    - {fileID: 11400000, guid: d8c6f26a92c1051468eb9f2e5e54fb1e, type: 2}
    - {fileID: 11400000, guid: 6dbc5d67f9b2a1a48afa536346574b5f, type: 2}
    - {fileID: 11400000, guid: 74687a7937f1d714094d7b5f00e31ee2, type: 2}
    - {fileID: 11400000, guid: 94a4d4b8ab5fe574e8e294b5159b86ee, type: 2}
    - {fileID: 11400000, guid: 9da1125128da97b47932ea434a93bdff, type: 2}
    enabledBasicMovesToggle: 0
    basicMovesToggle: 1
    attackMovesToggle: 1
  aiInstructionsSet:
  - aiInfo: {fileID: 11400000, guid: 381a98fe3348ea640801d8072511a960, type: 2}
    behavior: 4
  - aiInfo: {fileID: 11400000, guid: 388fce0a954ca8544a84bdd1c4b66fba, type: 2}
    behavior: 3
  - aiInfo: {fileID: 11400000, guid: 68a028838c8be5947880fd975acc4ca7, type: 2}
    behavior: 2
