%YAML 1.1
%TAG !u! tag:unity3d.com,2011:
--- !u!114 &11400000
MonoBehaviour:
  m_ObjectHideFlags: 0
  m_PrefabParentObject: {fileID: 0}
  m_PrefabInternal: {fileID: 0}
  m_GameObject: {fileID: 0}
  m_Enabled: 1
  m_EditorHideFlags: 0
  m_Script: {fileID: 11500000, guid: 03f9522b1b0f53b4c87d047ac5c3794f, type: 3}
  m_Name: ShinkuHadoken
  m_EditorClassIdentifier: 
  characterPrefab: {fileID: 100052, guid: ceeaecc0393d0fb438fde5457a24ead6, type: 2}
  moveName: Shinku Hadoken
  description: Super Fire Ball
  fps: 60
  ignoreGravity: 0
  ignoreFriction: 0
  cancelMoveWheLanding: 0
  forceMirrorLeft: 0
  forceMirrorRight: 0
  invertRotationLeft: 0
  invertRotationRight: 0
  autoCorrectRotation: 0
  frameWindowRotation: 0
  gaugeToggle: 0
  startDrainingGauge: 0
  inhibitGainWhileDraining: 0
  stopDrainingGauge: 0
  gaugeDPS: 0
  totalDrain: 0
  gaugeRequired: 100
  gaugeUsage: 100
  gaugeGainOnMiss: 0
  gaugeGainOnHit: 10
  gaugeGainOnBlock: 0
  opGaugeGainOnBlock: 10
  opGaugeGainOnParry: 50
  opGaugeGainOnHit: 10
  DCMove: {fileID: 0}
  DCStance: 0
  possibleStates: 0000000000000000
  possibleMoveStates: []
  animationClip: {fileID: 7400000, guid: 633a45f23eea08f418cb4e4182fbdc63, type: 2}
  disableHeadLook: 1
  wrapMode: 0
  fixedSpeed: 1
  animationSpeed: 0.8
  animSpeedKeyFrame: []
  totalFrames: 70
  startUpFrames: 5
  activeFrames: 5
  recoveryFrames: 5
  applyRootMotion: 0
  forceGrounded: 0
  rootMotionNode: 0
  overrideBlendingIn: 1
  overrideBlendingOut: 0
  blendingIn: 0
  blendingOut: 0
  chargeMove: 0
  chargeTiming: 0.7
  allowInputLeniency: 0
  allowNegativeEdge: 1
  leniencyBuffer: 0
  onReleaseExecution: 0
  requireButtonPress: 1
  onPressExecution: 1
  buttonSequence: 03000000000000000300000000000000
  buttonExecution: 04000000
  previousMoves: []
  frameLinks: []
  particleEffects: []
  appliedForces: []
  slowMoEffects: []
  bodyPartVisibilityChanges: []
  opponentOverride: []
  soundEffects: []
  inGameAlert: []
  stanceChanges: []
  cameraMovements:
  - cinematicType: 0
    animationClip: {fileID: 0}
    prefab: {fileID: 0}
    camAnimationSpeed: 1
    blendSpeed: 100
    gameObjectPosition: {x: 0, y: 0, z: 0}
    position: {x: -5.8251743, y: 5.2746315, z: -9.870457}
    rotation: {x: 3.0000002, y: 25.000002, z: 0}
    castingFrame: 8
    duration: 1
    fieldOfView: 20
    camSpeed: 4
    freezePhysics: 1
    myAnimationSpeed: 3
    opAnimationSpeed: 0
    previewToggle: 0
    startTime: 0.1
  hits: []
  blockableArea:
    activeFramesBegin: 1
    activeFramesEnds: 2
    bodyPart: 0
    shape: 0
    rect:
      serializedVersion: 2
      x: 0
      y: 0
      width: 4
      height: 4
    followXBounds: 0
    followYBounds: 0
    followZBounds: 0
    radius: 0
    offSet: {x: 0, y: 0, z: 0}
    height: 0.5
    direction: {x: 0, y: 0, z: 0}
    bodyPartTransform: {fileID: 0}
    position: {x: 0, y: 0, z: 0}
  invincibleBodyParts: []
  armorOptions:
    activeFramesBegin: 0
    activeFramesEnds: 0
    overrideHitEffects: 0
    hitEffects:
      hitParticle: {fileID: 0}
      killTime: 0
      hitSound: {fileID: 0}
      spawnPoint: 1
      freezingTime: 0
      animationSpeed: 0.1
      autoHitStop: 1
      hitStop: 0.1
      shakeCharacterOnHit: 1
      shakeCameraOnHit: 1
      shakeDensity: 0.8
      editorToggle: 0
    hitAbsorption: 0
    damageAbsorption: 0
    nonAffectedBodyParts: 
  projectiles:
  - castingFrame: 19
    projectilePrefab: {fileID: 100004, guid: 7dfb51afaf6f37946820579b8532c705, type: 2}
    impactPrefab: {fileID: 100008, guid: 143e055fde3ff3a4088e01d56bd51fe0, type: 2}
    bodyPart: 9
    castingOffSet: {x: 0, y: 0, z: 0}
    speed: 16
    directionAngle: 0
    duration: 8
    impactDuration: 1
    fixedZAxis: 0
    projectileCollision: 1
    unblockable: 0
    mirrorOn2PSide: 0
    hitBox:
      defaultVisibility: 1
      bodyPart: 0
      type: 0
      shape: 0
      rect:
        serializedVersion: 2
        x: 0
        y: 0
        width: 4
        height: 4
      followXBounds: 0
      followYBounds: 0
      followZBounds: 0
      radius: 0.5
      offSet: {x: 0, y: 0, z: 0}
      height: 0.5
      direction: {x: 0, y: 0, z: 0}
      collisionType: 0
      position: {fileID: 0}
    hurtBox:
      bodyPart: 0
      shape: 1
      rect:
        serializedVersion: 2
        x: -1
        y: -1
        width: 2
        height: 2
      followXBounds: 0
      followYBounds: 0
      followZBounds: 0
      radius: 0.5
      offSet: {x: 0, y: 0, z: 0}
      isBlock: 0
      height: 0.5
      direction: {x: 0, y: 0, z: 0}
      bodyPartTransform: {fileID: 0}
    blockableArea:
      activeFramesBegin: 0
      activeFramesEnds: 0
      bodyPart: 0
      shape: 1
      rect:
        serializedVersion: 2
        x: -1
        y: -1
        width: 4
        height: 2
      followXBounds: 0
      followYBounds: 0
      followZBounds: 0
      radius: 0.5
      offSet: {x: 0, y: 0, z: 0}
      height: 0.5
      direction: {x: 0, y: 0, z: 0}
      bodyPartTransform: {fileID: 0}
      position: {x: 0, y: 0, z: 0}
    spaceBetweenHits: 0
    totalHits: 6
    resetPreviousHitStun: 1
    hitStunOnHit: 40
    hitStunOnBlock: 10
    overrideHitEffects: 0
    armorBreaker: 0
    hitEffects:
      hitParticle: {fileID: 0}
      killTime: 0
      hitSound: {fileID: 0}
      spawnPoint: 1
      freezingTime: 0
      animationSpeed: 0.1
      autoHitStop: 1
      hitStop: 0.1
      shakeCharacterOnHit: 1
      shakeCameraOnHit: 1
      shakeDensity: 0.8
      editorToggle: 0
    groundHit: 1
    airHit: 1
    downHit: 0
    damageType: 1
    damageOnHit: 40
    damageOnBlock: 20
    damageScaling: 1
    obeyDirectionalHit: 1
    hitEffectsOnHit: 1
    pushForce: {x: 12, y: 16}
    hitStrength: 1
    hitType: 0
    moveLinkOnStrike: {fileID: 0}
    moveLinkOnBlock: {fileID: 0}
    moveLinkOnParry: {fileID: 0}
    forceGrounded: 0
    moveLinksToggle: 0
    damageOptionsToggle: 0
    hitStunOptionsToggle: 1
    preview: 1
  opponentConditions:
    basicMoveLimitation: 
    possibleMoveStates: []
    basicMovesToggle: 0
    statesToggle: 0
  selfConditions:
    basicMoveLimitation: 
    possibleMoveStates:
    - possibleState: 0
      jumpArc: 0
      jumpArcBegins: 0
      jumpArcEnds: 100
      opponentDistance: 0
      proximityRangeBegins: 0
      proximityRangeEnds: 100
      movingForward: 1
      movingBack: 1
      standBy: 1
      blocking: 0
      stunned: 0
    - possibleState: 1
      jumpArc: 0
      jumpArcBegins: 0
      jumpArcEnds: 100
      opponentDistance: 0
      proximityRangeBegins: 0
      proximityRangeEnds: 100
      movingForward: 1
      movingBack: 1
      standBy: 1
      blocking: 0
      stunned: 0
    basicMovesToggle: 0
    statesToggle: 1
  moveClassification:
    attackType: 6
    hitType: 0
    startupSpeed: 0
    recoverySpeed: 0
    hitConfirmType: 0
    preferableDistance: 4
    gaugeUsage: 3
    anyAttackType: 1
    anyHitType: 1
    anyHitConfirmType: 1
  speedKeyFrameToggle: 0
