%YAML 1.1
%TAG !u! tag:unity3d.com,2011:
--- !u!114 &11400000
MonoBehaviour:
  m_ObjectHideFlags: 0
  m_PrefabParentObject: {fileID: 0}
  m_PrefabInternal: {fileID: 0}
  m_GameObject: {fileID: 0}
  m_Enabled: 1
  m_EditorHideFlags: 0
  m_Script: {fileID: 11500000, guid: e2e5269517f28664db5ccd78cbd208b1, type: 3}
  m_Name: Mike
  m_EditorClassIdentifier: 
  profilePictureSmall: {fileID: 2800000, guid: c6da65867bbd760469d6eea1398c79ff, type: 3}
  profilePictureBig: {fileID: 2800000, guid: 99c6b14538768d74d8330dfc829b241e, type: 3}
  characterName: Mike
  gender: 1
  characterDescription: 'Animation Type: Mecanim

    Fight Style: Shotokan

    To enable throw, open the Hit Box Setup and set the last hitbox colision type
    to "throw".

    Throw moves are located under the Moves folder (ThrowReactionCustom)'
  selectionAnimation: {fileID: 0}
  selectionSound: {fileID: 0}
  deathSound: {fileID: 8300000, guid: b671558967ea26742bffcc63ea2ac5d0, type: 3}
  height: 5.8
  age: 32
  bloodType: Unknown
  lifePoints: 800
  maxGaugePoints: 400
  characterPrefab: {fileID: 100052, guid: ceeaecc0393d0fb438fde5457a24ead6, type: 2}
  alternativeCostumes:
  - name: Alt Costume
    prefab: {fileID: 100052, guid: 59bc1916f83e5f24b8d3b63a118ec294, type: 2}
    enableColorMask: 0
    colorMask: {r: 0.9705882, g: 0, b: 0, a: 0}
  physics:
    moveForwardSpeed: 7.5
    moveBackSpeed: 6
    moveSideSpeed: 7
    highMovingFriction: 1
    friction: 30
    canCrouch: 1
    crouchDelay: 2
    standingDelay: 2
    canJump: 1
    jumpForce: 28
    jumpDistance: 7
    cumulativeForce: 1
    multiJumps: 1
    weight: 200
    jumpDelay: 4
    landingDelay: 7
    groundCollisionMass: 2
  headLook:
    enabled: 0
    segments: []
    nonAffectedJoints: []
    target: 1
    effect: 1
    overrideAnimation: 1
    disableOnHit: 1
  executionTiming: 0.3
  possibleAirMoves: 1
  blendingTime: 0.1
  animationType: 0
  avatar: {fileID: 0}
  applyRootMotion: 0
  animationFlow: 0
  moves:
  - combatStance: 0
    cinematicIntro: {fileID: 11400000, guid: 9cb851c27962c8b43870657dda5df7bd, type: 2}
    cinematicOutro: {fileID: 11400000, guid: db8d4bad01e6c7244938c0ca6f7283bb, type: 2}
    basicMoves:
      idle:
        clip1: {fileID: 7400000, guid: 9f775d51ca2cc34488816a23f4d451ba, type: 2}
        clip2: {fileID: 7400000, guid: d2a0638b855fb2c4bbe50d0b77bfebb2, type: 2}
        clip3: {fileID: 7400000, guid: d2a0638b855fb2c4bbe50d0b77bfebb2, type: 2}
        clip4: {fileID: 0}
        clip5: {fileID: 0}
        clip6: {fileID: 0}
        wrapMode: 2
        autoSpeed: 0
        animationSpeed: 1
        restingClipInterval: 6
        overrideBlendingIn: 0
        overrideBlendingOut: 0
        blendingIn: 0
        blendingOut: 0
        invincible: 0
        disableHeadLook: 0
        applyRootMotion: 0
        downClip: 0
        soundEffects: []
        continuousSound: 0
        particleEffect:
          editorToggle: 0
          prefab: {fileID: 0}
          duration: 0
          stick: 0
          destroyOnMoveOver: 0
          followRotation: 0
          lockLocalPosition: 0
          mirrorOn2PSide: 0
          initialRotation: {x: 0, y: 0, z: 0}
          positionOffSet: {x: 0, y: 0, z: 0}
          bodyPart: 0
        reference: 0
        name: idle
        editorToggle: 0
        soundEffectsToggle: 0
      moveForward:
        clip1: {fileID: 7400000, guid: e46b65c3b3c9fd84d8ec7f64de473e89, type: 2}
        clip2: {fileID: 0}
        clip3: {fileID: 0}
        clip4: {fileID: 0}
        clip5: {fileID: 0}
        clip6: {fileID: 0}
        wrapMode: 2
        autoSpeed: 0
        animationSpeed: 1
        restingClipInterval: 6
        overrideBlendingIn: 0
        overrideBlendingOut: 0
        blendingIn: 0
        blendingOut: 0
        invincible: 0
        disableHeadLook: 0
        applyRootMotion: 0
        downClip: 0
        soundEffects: []
        continuousSound: 0
        particleEffect:
          editorToggle: 0
          prefab: {fileID: 0}
          duration: 0
          stick: 0
          destroyOnMoveOver: 0
          followRotation: 0
          lockLocalPosition: 0
          mirrorOn2PSide: 0
          initialRotation: {x: 0, y: 0, z: 0}
          positionOffSet: {x: 0, y: 0, z: 0}
          bodyPart: 0
        reference: 0
        name: moveForward
        editorToggle: 0
        soundEffectsToggle: 0
      moveBack:
        clip1: {fileID: 7400000, guid: e46b65c3b3c9fd84d8ec7f64de473e89, type: 2}
        clip2: {fileID: 0}
        clip3: {fileID: 0}
        clip4: {fileID: 0}
        clip5: {fileID: 0}
        clip6: {fileID: 0}
        wrapMode: 2
        autoSpeed: 0
        animationSpeed: -0.8
        restingClipInterval: 6
        overrideBlendingIn: 0
        overrideBlendingOut: 0
        blendingIn: 0
        blendingOut: 0
        invincible: 0
        disableHeadLook: 0
        applyRootMotion: 0
        downClip: 0
        soundEffects: []
        continuousSound: 0
        particleEffect:
          editorToggle: 0
          prefab: {fileID: 0}
          duration: 0
          stick: 0
          destroyOnMoveOver: 0
          followRotation: 0
          lockLocalPosition: 0
          mirrorOn2PSide: 0
          initialRotation: {x: 0, y: 0, z: 0}
          positionOffSet: {x: 0, y: 0, z: 0}
          bodyPart: 0
        reference: 0
        name: moveBack
        editorToggle: 0
        soundEffectsToggle: 0
      takeOff:
        clip1: {fileID: 0}
        clip2: {fileID: 0}
        clip3: {fileID: 0}
        clip4: {fileID: 0}
        clip5: {fileID: 0}
        clip6: {fileID: 0}
        wrapMode: 8
        autoSpeed: 1
        animationSpeed: 1
        restingClipInterval: 6
        overrideBlendingIn: 1
        overrideBlendingOut: 0
        blendingIn: 0
        blendingOut: 0
        invincible: 0
        disableHeadLook: 0
        applyRootMotion: 0
        downClip: 0
        soundEffects: []
        continuousSound: 0
        particleEffect:
          editorToggle: 0
          prefab: {fileID: 0}
          duration: 1
          stick: 0
          destroyOnMoveOver: 0
          followRotation: 0
          lockLocalPosition: 0
          mirrorOn2PSide: 0
          initialRotation: {x: 0, y: 0, z: 0}
          positionOffSet: {x: 0, y: 0, z: 0}
          bodyPart: 0
        reference: 0
        name: 
        editorToggle: 0
        soundEffectsToggle: 0
      jumpStraight:
        clip1: {fileID: 7400000, guid: edf9ea0c5c91a7242979201ba42c43d5, type: 2}
        clip2: {fileID: 0}
        clip3: {fileID: 0}
        clip4: {fileID: 0}
        clip5: {fileID: 0}
        clip6: {fileID: 0}
        wrapMode: 8
        autoSpeed: 1
        animationSpeed: 1
        restingClipInterval: 6
        overrideBlendingIn: 0
        overrideBlendingOut: 0
        blendingIn: 0
        blendingOut: 0
        invincible: 0
        disableHeadLook: 0
        applyRootMotion: 0
        downClip: 0
        soundEffects: []
        continuousSound: 0
        particleEffect:
          editorToggle: 0
          prefab: {fileID: 0}
          duration: 1
          stick: 0
          destroyOnMoveOver: 0
          followRotation: 0
          lockLocalPosition: 0
          mirrorOn2PSide: 0
          initialRotation: {x: 0, y: 0, z: 0}
          positionOffSet: {x: 0, y: 0, z: 0}
          bodyPart: 0
        reference: 0
        name: 
        editorToggle: 0
        soundEffectsToggle: 0
      jumpBack:
        clip1: {fileID: 0}
        clip2: {fileID: 0}
        clip3: {fileID: 0}
        clip4: {fileID: 0}
        clip5: {fileID: 0}
        clip6: {fileID: 0}
        wrapMode: 8
        autoSpeed: 1
        animationSpeed: 1
        restingClipInterval: 6
        overrideBlendingIn: 0
        overrideBlendingOut: 0
        blendingIn: 0
        blendingOut: 0
        invincible: 0
        disableHeadLook: 0
        applyRootMotion: 0
        downClip: 0
        soundEffects: []
        continuousSound: 0
        particleEffect:
          editorToggle: 0
          prefab: {fileID: 0}
          duration: 1
          stick: 0
          destroyOnMoveOver: 0
          followRotation: 0
          lockLocalPosition: 0
          mirrorOn2PSide: 0
          initialRotation: {x: 0, y: 0, z: 0}
          positionOffSet: {x: 0, y: 0, z: 0}
          bodyPart: 0
        reference: 0
        name: 
        editorToggle: 0
        soundEffectsToggle: 0
      jumpForward:
        clip1: {fileID: 0}
        clip2: {fileID: 0}
        clip3: {fileID: 0}
        clip4: {fileID: 0}
        clip5: {fileID: 0}
        clip6: {fileID: 0}
        wrapMode: 8
        autoSpeed: 1
        animationSpeed: 1
        restingClipInterval: 6
        overrideBlendingIn: 0
        overrideBlendingOut: 0
        blendingIn: 0
        blendingOut: 0
        invincible: 0
        disableHeadLook: 0
        applyRootMotion: 0
        downClip: 0
        soundEffects: []
        continuousSound: 0
        particleEffect:
          editorToggle: 0
          prefab: {fileID: 0}
          duration: 1
          stick: 0
          destroyOnMoveOver: 0
          followRotation: 0
          lockLocalPosition: 0
          mirrorOn2PSide: 0
          initialRotation: {x: 0, y: 0, z: 0}
          positionOffSet: {x: 0, y: 0, z: 0}
          bodyPart: 0
        reference: 0
        name: 
        editorToggle: 0
        soundEffectsToggle: 0
      fallStraight:
        clip1: {fileID: 7400000, guid: 0fd098ee9eacb8e4b9ece8ebe50ae008, type: 2}
        clip2: {fileID: 0}
        clip3: {fileID: 0}
        clip4: {fileID: 0}
        clip5: {fileID: 0}
        clip6: {fileID: 0}
        wrapMode: 8
        autoSpeed: 1
        animationSpeed: 1
        restingClipInterval: 6
        overrideBlendingIn: 0
        overrideBlendingOut: 0
        blendingIn: 0
        blendingOut: 0
        invincible: 0
        disableHeadLook: 0
        applyRootMotion: 0
        downClip: 0
        soundEffects: []
        continuousSound: 0
        particleEffect:
          editorToggle: 0
          prefab: {fileID: 0}
          duration: 1
          stick: 0
          destroyOnMoveOver: 0
          followRotation: 0
          lockLocalPosition: 0
          mirrorOn2PSide: 0
          initialRotation: {x: 0, y: 0, z: 0}
          positionOffSet: {x: 0, y: 0, z: 0}
          bodyPart: 0
        reference: 0
        name: 
        editorToggle: 0
        soundEffectsToggle: 0
      fallBack:
        clip1: {fileID: 0}
        clip2: {fileID: 0}
        clip3: {fileID: 0}
        clip4: {fileID: 0}
        clip5: {fileID: 0}
        clip6: {fileID: 0}
        wrapMode: 8
        autoSpeed: 1
        animationSpeed: 1
        restingClipInterval: 6
        overrideBlendingIn: 0
        overrideBlendingOut: 0
        blendingIn: 0
        blendingOut: 0
        invincible: 0
        disableHeadLook: 0
        applyRootMotion: 0
        downClip: 0
        soundEffects: []
        continuousSound: 0
        particleEffect:
          editorToggle: 0
          prefab: {fileID: 0}
          duration: 1
          stick: 0
          destroyOnMoveOver: 0
          followRotation: 0
          lockLocalPosition: 0
          mirrorOn2PSide: 0
          initialRotation: {x: 0, y: 0, z: 0}
          positionOffSet: {x: 0, y: 0, z: 0}
          bodyPart: 0
        reference: 0
        name: 
        editorToggle: 0
        soundEffectsToggle: 0
      fallForward:
        clip1: {fileID: 0}
        clip2: {fileID: 0}
        clip3: {fileID: 0}
        clip4: {fileID: 0}
        clip5: {fileID: 0}
        clip6: {fileID: 0}
        wrapMode: 8
        autoSpeed: 1
        animationSpeed: 1
        restingClipInterval: 6
        overrideBlendingIn: 0
        overrideBlendingOut: 0
        blendingIn: 0
        blendingOut: 0
        invincible: 0
        disableHeadLook: 0
        applyRootMotion: 0
        downClip: 0
        soundEffects: []
        continuousSound: 0
        particleEffect:
          editorToggle: 0
          prefab: {fileID: 0}
          duration: 1
          stick: 0
          destroyOnMoveOver: 0
          followRotation: 0
          lockLocalPosition: 0
          mirrorOn2PSide: 0
          initialRotation: {x: 0, y: 0, z: 0}
          positionOffSet: {x: 0, y: 0, z: 0}
          bodyPart: 0
        reference: 0
        name: 
        editorToggle: 0
        soundEffectsToggle: 0
      landing:
        clip1: {fileID: 7400000, guid: fdb5e27b502881d41981fbb2f45d3e1b, type: 2}
        clip2: {fileID: 0}
        clip3: {fileID: 0}
        clip4: {fileID: 0}
        clip5: {fileID: 0}
        clip6: {fileID: 0}
        wrapMode: 1
        autoSpeed: 1
        animationSpeed: 1
        restingClipInterval: 6
        overrideBlendingIn: 0
        overrideBlendingOut: 0
        blendingIn: 0
        blendingOut: 0
        invincible: 0
        disableHeadLook: 0
        applyRootMotion: 0
        downClip: 0
        soundEffects: []
        continuousSound: 0
        particleEffect:
          editorToggle: 0
          prefab: {fileID: 0}
          duration: 0
          stick: 0
          destroyOnMoveOver: 0
          followRotation: 0
          lockLocalPosition: 0
          mirrorOn2PSide: 0
          initialRotation: {x: 0, y: 0, z: 0}
          positionOffSet: {x: 0, y: 0, z: 0}
          bodyPart: 0
        reference: 0
        name: landing
        editorToggle: 0
        soundEffectsToggle: 0
      crouching:
        clip1: {fileID: 7400000, guid: 76e76e61a600d5e4bac74da728ef2fc1, type: 2}
        clip2: {fileID: 0}
        clip3: {fileID: 0}
        clip4: {fileID: 0}
        clip5: {fileID: 0}
        clip6: {fileID: 0}
        wrapMode: 2
        autoSpeed: 0
        animationSpeed: 1
        restingClipInterval: 6
        overrideBlendingIn: 0
        overrideBlendingOut: 0
        blendingIn: 0.4
        blendingOut: 0.4
        invincible: 0
        disableHeadLook: 0
        applyRootMotion: 0
        downClip: 0
        soundEffects: []
        continuousSound: 0
        particleEffect:
          editorToggle: 0
          prefab: {fileID: 0}
          duration: 0
          stick: 0
          destroyOnMoveOver: 0
          followRotation: 0
          lockLocalPosition: 0
          mirrorOn2PSide: 0
          initialRotation: {x: 0, y: 0, z: 0}
          positionOffSet: {x: 0, y: 0, z: 0}
          bodyPart: 0
        reference: 0
        name: crouching
        editorToggle: 0
        soundEffectsToggle: 0
      blockingCrouchingPose:
        clip1: {fileID: 7400000, guid: 1a2e89872c911ce42a56c220d592eb0f, type: 2}
        clip2: {fileID: 0}
        clip3: {fileID: 0}
        clip4: {fileID: 0}
        clip5: {fileID: 0}
        clip6: {fileID: 0}
        wrapMode: 8
        autoSpeed: 0
        animationSpeed: 1
        restingClipInterval: 6
        overrideBlendingIn: 0
        overrideBlendingOut: 0
        blendingIn: 0
        blendingOut: 0
        invincible: 0
        disableHeadLook: 0
        applyRootMotion: 0
        downClip: 0
        soundEffects: []
        continuousSound: 0
        particleEffect:
          editorToggle: 0
          prefab: {fileID: 0}
          duration: 1
          stick: 0
          destroyOnMoveOver: 0
          followRotation: 0
          lockLocalPosition: 0
          mirrorOn2PSide: 0
          initialRotation: {x: 0, y: 0, z: 0}
          positionOffSet: {x: 0, y: 0, z: 0}
          bodyPart: 0
        reference: 0
        name: 
        editorToggle: 0
        soundEffectsToggle: 0
      blockingCrouchingHit:
        clip1: {fileID: 7400000, guid: b8d24da8f1dff484b8db5dbb6d465183, type: 2}
        clip2: {fileID: 0}
        clip3: {fileID: 0}
        clip4: {fileID: 0}
        clip5: {fileID: 0}
        clip6: {fileID: 0}
        wrapMode: 1
        autoSpeed: 1
        animationSpeed: 1
        restingClipInterval: 6
        overrideBlendingIn: 1
        overrideBlendingOut: 1
        blendingIn: 0
        blendingOut: 0
        invincible: 0
        disableHeadLook: 0
        applyRootMotion: 0
        downClip: 0
        soundEffects: []
        continuousSound: 0
        particleEffect:
          editorToggle: 0
          prefab: {fileID: 0}
          duration: 1
          stick: 0
          destroyOnMoveOver: 0
          followRotation: 0
          lockLocalPosition: 0
          mirrorOn2PSide: 0
          initialRotation: {x: 0, y: 0, z: 0}
          positionOffSet: {x: 0, y: 0, z: 0}
          bodyPart: 0
        reference: 0
        name: 
        editorToggle: 0
        soundEffectsToggle: 0
      blockingHighPose:
        clip1: {fileID: 7400000, guid: 5a6fea97a68227042adace2961e842ad, type: 2}
        clip2: {fileID: 0}
        clip3: {fileID: 0}
        clip4: {fileID: 0}
        clip5: {fileID: 0}
        clip6: {fileID: 0}
        wrapMode: 8
        autoSpeed: 0
        animationSpeed: 1
        restingClipInterval: 6
        overrideBlendingIn: 0
        overrideBlendingOut: 0
        blendingIn: 0
        blendingOut: 0
        invincible: 0
        disableHeadLook: 0
        applyRootMotion: 0
        downClip: 0
        soundEffects: []
        continuousSound: 0
        particleEffect:
          editorToggle: 0
          prefab: {fileID: 0}
          duration: 0
          stick: 0
          destroyOnMoveOver: 0
          followRotation: 0
          lockLocalPosition: 0
          mirrorOn2PSide: 0
          initialRotation: {x: 0, y: 0, z: 0}
          positionOffSet: {x: 0, y: 0, z: 0}
          bodyPart: 0
        reference: 0
        name: blockingHighPose
        editorToggle: 0
        soundEffectsToggle: 0
      blockingHighHit:
        clip1: {fileID: 7400000, guid: cbc778774a7eb884d92d3747bf4092f8, type: 2}
        clip2: {fileID: 0}
        clip3: {fileID: 0}
        clip4: {fileID: 0}
        clip5: {fileID: 0}
        clip6: {fileID: 0}
        wrapMode: 1
        autoSpeed: 1
        animationSpeed: 1
        restingClipInterval: 6
        overrideBlendingIn: 1
        overrideBlendingOut: 1
        blendingIn: 0
        blendingOut: 0
        invincible: 0
        disableHeadLook: 0
        applyRootMotion: 0
        downClip: 0
        soundEffects: []
        continuousSound: 0
        particleEffect:
          editorToggle: 0
          prefab: {fileID: 0}
          duration: 0
          stick: 0
          destroyOnMoveOver: 0
          followRotation: 0
          lockLocalPosition: 0
          mirrorOn2PSide: 0
          initialRotation: {x: 0, y: 0, z: 0}
          positionOffSet: {x: 0, y: 0, z: 0}
          bodyPart: 0
        reference: 0
        name: blockingHighHit
        editorToggle: 0
        soundEffectsToggle: 0
      blockingLowHit:
        clip1: {fileID: 0}
        clip2: {fileID: 0}
        clip3: {fileID: 0}
        clip4: {fileID: 0}
        clip5: {fileID: 0}
        clip6: {fileID: 0}
        wrapMode: 1
        autoSpeed: 1
        animationSpeed: 1
        restingClipInterval: 6
        overrideBlendingIn: 0
        overrideBlendingOut: 0
        blendingIn: 0
        blendingOut: 0
        invincible: 0
        disableHeadLook: 0
        applyRootMotion: 0
        downClip: 0
        soundEffects: []
        continuousSound: 0
        particleEffect:
          editorToggle: 0
          prefab: {fileID: 0}
          duration: 1
          stick: 0
          destroyOnMoveOver: 0
          followRotation: 0
          lockLocalPosition: 0
          mirrorOn2PSide: 0
          initialRotation: {x: 0, y: 0, z: 0}
          positionOffSet: {x: 0, y: 0, z: 0}
          bodyPart: 0
        reference: 0
        name: 
        editorToggle: 0
        soundEffectsToggle: 0
      blockingAirPose:
        clip1: {fileID: 7400000, guid: 03ba393bbf1f02f4faa8239864ad07a5, type: 2}
        clip2: {fileID: 0}
        clip3: {fileID: 0}
        clip4: {fileID: 0}
        clip5: {fileID: 0}
        clip6: {fileID: 0}
        wrapMode: 8
        autoSpeed: 0
        animationSpeed: 1
        restingClipInterval: 6
        overrideBlendingIn: 0
        overrideBlendingOut: 0
        blendingIn: 0
        blendingOut: 0
        invincible: 0
        disableHeadLook: 0
        applyRootMotion: 0
        downClip: 0
        soundEffects: []
        continuousSound: 0
        particleEffect:
          editorToggle: 0
          prefab: {fileID: 0}
          duration: 0
          stick: 0
          destroyOnMoveOver: 0
          followRotation: 0
          lockLocalPosition: 0
          mirrorOn2PSide: 0
          initialRotation: {x: 0, y: 0, z: 0}
          positionOffSet: {x: 0, y: 0, z: 0}
          bodyPart: 0
        reference: 0
        name: blockingAirPose
        editorToggle: 0
        soundEffectsToggle: 0
      blockingAirHit:
        clip1: {fileID: 7400000, guid: 7e5a3bb125f1c88428a67d941dada019, type: 2}
        clip2: {fileID: 0}
        clip3: {fileID: 0}
        clip4: {fileID: 0}
        clip5: {fileID: 0}
        clip6: {fileID: 0}
        wrapMode: 1
        autoSpeed: 1
        animationSpeed: 1
        restingClipInterval: 6
        overrideBlendingIn: 0
        overrideBlendingOut: 0
        blendingIn: 0
        blendingOut: 0
        invincible: 0
        disableHeadLook: 0
        applyRootMotion: 0
        downClip: 0
        soundEffects: []
        continuousSound: 0
        particleEffect:
          editorToggle: 0
          prefab: {fileID: 0}
          duration: 0
          stick: 0
          destroyOnMoveOver: 0
          followRotation: 0
          lockLocalPosition: 0
          mirrorOn2PSide: 0
          initialRotation: {x: 0, y: 0, z: 0}
          positionOffSet: {x: 0, y: 0, z: 0}
          bodyPart: 0
        reference: 0
        name: blockingAirHit
        editorToggle: 0
        soundEffectsToggle: 0
      parryCrouching:
        clip1: {fileID: 7400000, guid: b8d24da8f1dff484b8db5dbb6d465183, type: 2}
        clip2: {fileID: 0}
        clip3: {fileID: 0}
        clip4: {fileID: 0}
        clip5: {fileID: 0}
        clip6: {fileID: 0}
        wrapMode: 1
        autoSpeed: 1
        animationSpeed: 1
        restingClipInterval: 6
        overrideBlendingIn: 0
        overrideBlendingOut: 0
        blendingIn: 0
        blendingOut: 0
        invincible: 0
        disableHeadLook: 0
        applyRootMotion: 0
        downClip: 0
        soundEffects: []
        continuousSound: 0
        particleEffect:
          editorToggle: 0
          prefab: {fileID: 0}
          duration: 1
          stick: 0
          destroyOnMoveOver: 0
          followRotation: 0
          lockLocalPosition: 0
          mirrorOn2PSide: 0
          initialRotation: {x: 0, y: 0, z: 0}
          positionOffSet: {x: 0, y: 0, z: 0}
          bodyPart: 0
        reference: 0
        name: 
        editorToggle: 0
        soundEffectsToggle: 0
      parryHigh:
        clip1: {fileID: 7400000, guid: cbc778774a7eb884d92d3747bf4092f8, type: 2}
        clip2: {fileID: 0}
        clip3: {fileID: 0}
        clip4: {fileID: 0}
        clip5: {fileID: 0}
        clip6: {fileID: 0}
        wrapMode: 1
        autoSpeed: 1
        animationSpeed: 1
        restingClipInterval: 6
        overrideBlendingIn: 0
        overrideBlendingOut: 0
        blendingIn: 0
        blendingOut: 0
        invincible: 0
        disableHeadLook: 0
        applyRootMotion: 0
        downClip: 0
        soundEffects: []
        continuousSound: 0
        particleEffect:
          editorToggle: 0
          prefab: {fileID: 0}
          duration: 0
          stick: 0
          destroyOnMoveOver: 0
          followRotation: 0
          lockLocalPosition: 0
          mirrorOn2PSide: 0
          initialRotation: {x: 0, y: 0, z: 0}
          positionOffSet: {x: 0, y: 0, z: 0}
          bodyPart: 0
        reference: 0
        name: parryHigh
        editorToggle: 0
        soundEffectsToggle: 0
      parryLow:
        clip1: {fileID: 0}
        clip2: {fileID: 0}
        clip3: {fileID: 0}
        clip4: {fileID: 0}
        clip5: {fileID: 0}
        clip6: {fileID: 0}
        wrapMode: 1
        autoSpeed: 1
        animationSpeed: 1
        restingClipInterval: 6
        overrideBlendingIn: 0
        overrideBlendingOut: 0
        blendingIn: 0
        blendingOut: 0
        invincible: 0
        disableHeadLook: 0
        applyRootMotion: 0
        downClip: 0
        soundEffects: []
        continuousSound: 0
        particleEffect:
          editorToggle: 0
          prefab: {fileID: 0}
          duration: 1
          stick: 0
          destroyOnMoveOver: 0
          followRotation: 0
          lockLocalPosition: 0
          mirrorOn2PSide: 0
          initialRotation: {x: 0, y: 0, z: 0}
          positionOffSet: {x: 0, y: 0, z: 0}
          bodyPart: 0
        reference: 0
        name: 
        editorToggle: 0
        soundEffectsToggle: 0
      parryAir:
        clip1: {fileID: 7400000, guid: 7e5a3bb125f1c88428a67d941dada019, type: 2}
        clip2: {fileID: 0}
        clip3: {fileID: 0}
        clip4: {fileID: 0}
        clip5: {fileID: 0}
        clip6: {fileID: 0}
        wrapMode: 1
        autoSpeed: 1
        animationSpeed: 1
        restingClipInterval: 6
        overrideBlendingIn: 0
        overrideBlendingOut: 0
        blendingIn: 0
        blendingOut: 0
        invincible: 0
        disableHeadLook: 0
        applyRootMotion: 0
        downClip: 0
        soundEffects: []
        continuousSound: 0
        particleEffect:
          editorToggle: 0
          prefab: {fileID: 0}
          duration: 0
          stick: 0
          destroyOnMoveOver: 0
          followRotation: 0
          lockLocalPosition: 0
          mirrorOn2PSide: 0
          initialRotation: {x: 0, y: 0, z: 0}
          positionOffSet: {x: 0, y: 0, z: 0}
          bodyPart: 0
        reference: 0
        name: parryAir
        editorToggle: 0
        soundEffectsToggle: 0
      groundBounce:
        clip1: {fileID: 7400000, guid: 66c6c49d4dd84a446ad02a8373ca9fe0, type: 2}
        clip2: {fileID: 0}
        clip3: {fileID: 0}
        clip4: {fileID: 0}
        clip5: {fileID: 0}
        clip6: {fileID: 0}
        wrapMode: 8
        autoSpeed: 0
        animationSpeed: 1
        restingClipInterval: 6
        overrideBlendingIn: 0
        overrideBlendingOut: 0
        blendingIn: 0
        blendingOut: 0
        invincible: 0
        disableHeadLook: 0
        applyRootMotion: 0
        downClip: 0
        soundEffects: []
        continuousSound: 0
        particleEffect:
          editorToggle: 0
          prefab: {fileID: 0}
          duration: 1
          stick: 0
          destroyOnMoveOver: 0
          followRotation: 0
          lockLocalPosition: 0
          mirrorOn2PSide: 0
          initialRotation: {x: 0, y: 0, z: 0}
          positionOffSet: {x: 0, y: 0, z: 0}
          bodyPart: 0
        reference: 0
        name: 
        editorToggle: 0
        soundEffectsToggle: 0
      standingWallBounce:
        clip1: {fileID: 0}
        clip2: {fileID: 0}
        clip3: {fileID: 0}
        clip4: {fileID: 0}
        clip5: {fileID: 0}
        clip6: {fileID: 0}
        wrapMode: 8
        autoSpeed: 0
        animationSpeed: 1
        restingClipInterval: 6
        overrideBlendingIn: 0
        overrideBlendingOut: 0
        blendingIn: 0
        blendingOut: 0
        invincible: 0
        disableHeadLook: 0
        applyRootMotion: 0
        downClip: 0
        soundEffects: []
        continuousSound: 0
        particleEffect:
          editorToggle: 0
          prefab: {fileID: 0}
          duration: 1
          stick: 0
          destroyOnMoveOver: 0
          followRotation: 0
          lockLocalPosition: 0
          mirrorOn2PSide: 0
          initialRotation: {x: 0, y: 0, z: 0}
          positionOffSet: {x: 0, y: 0, z: 0}
          bodyPart: 0
        reference: 0
        name: 
        editorToggle: 0
        soundEffectsToggle: 0
      standingWallBounceKnockdown:
        clip1: {fileID: 0}
        clip2: {fileID: 0}
        clip3: {fileID: 0}
        clip4: {fileID: 0}
        clip5: {fileID: 0}
        clip6: {fileID: 0}
        wrapMode: 8
        autoSpeed: 0
        animationSpeed: 1
        restingClipInterval: 6
        overrideBlendingIn: 0
        overrideBlendingOut: 0
        blendingIn: 0
        blendingOut: 0
        invincible: 0
        disableHeadLook: 0
        applyRootMotion: 0
        downClip: 0
        soundEffects: []
        continuousSound: 0
        particleEffect:
          editorToggle: 0
          prefab: {fileID: 0}
          duration: 1
          stick: 0
          destroyOnMoveOver: 0
          followRotation: 0
          lockLocalPosition: 0
          mirrorOn2PSide: 0
          initialRotation: {x: 0, y: 0, z: 0}
          positionOffSet: {x: 0, y: 0, z: 0}
          bodyPart: 0
        reference: 0
        name: 
        editorToggle: 0
        soundEffectsToggle: 0
      airWallBounce:
        clip1: {fileID: 0}
        clip2: {fileID: 0}
        clip3: {fileID: 0}
        clip4: {fileID: 0}
        clip5: {fileID: 0}
        clip6: {fileID: 0}
        wrapMode: 8
        autoSpeed: 0
        animationSpeed: 1
        restingClipInterval: 6
        overrideBlendingIn: 0
        overrideBlendingOut: 0
        blendingIn: 0
        blendingOut: 0
        invincible: 0
        disableHeadLook: 0
        applyRootMotion: 0
        downClip: 0
        soundEffects: []
        continuousSound: 0
        particleEffect:
          editorToggle: 0
          prefab: {fileID: 0}
          duration: 1
          stick: 0
          destroyOnMoveOver: 0
          followRotation: 0
          lockLocalPosition: 0
          mirrorOn2PSide: 0
          initialRotation: {x: 0, y: 0, z: 0}
          positionOffSet: {x: 0, y: 0, z: 0}
          bodyPart: 0
        reference: 0
        name: 
        editorToggle: 0
        soundEffectsToggle: 0
      fallingFromGroundBounce:
        clip1: {fileID: 7400000, guid: 0eaf80d4b3de6a645a6bcb5cd817c711, type: 2}
        clip2: {fileID: 0}
        clip3: {fileID: 0}
        clip4: {fileID: 0}
        clip5: {fileID: 0}
        clip6: {fileID: 0}
        wrapMode: 8
        autoSpeed: 1
        animationSpeed: 1
        restingClipInterval: 6
        overrideBlendingIn: 0
        overrideBlendingOut: 0
        blendingIn: 0
        blendingOut: 0
        invincible: 0
        disableHeadLook: 0
        applyRootMotion: 0
        downClip: 0
        soundEffects: []
        continuousSound: 0
        particleEffect:
          editorToggle: 0
          prefab: {fileID: 0}
          duration: 1
          stick: 0
          destroyOnMoveOver: 0
          followRotation: 0
          lockLocalPosition: 0
          mirrorOn2PSide: 0
          initialRotation: {x: 0, y: 0, z: 0}
          positionOffSet: {x: 0, y: 0, z: 0}
          bodyPart: 0
        reference: 0
        name: 
        editorToggle: 0
        soundEffectsToggle: 0
      fallingFromAirHit:
        clip1: {fileID: 0}
        clip2: {fileID: 0}
        clip3: {fileID: 0}
        clip4: {fileID: 0}
        clip5: {fileID: 0}
        clip6: {fileID: 0}
        wrapMode: 8
        autoSpeed: 1
        animationSpeed: 1
        restingClipInterval: 6
        overrideBlendingIn: 0
        overrideBlendingOut: 0
        blendingIn: 0
        blendingOut: 0
        invincible: 0
        disableHeadLook: 0
        applyRootMotion: 0
        downClip: 0
        soundEffects: []
        continuousSound: 0
        particleEffect:
          editorToggle: 0
          prefab: {fileID: 0}
          duration: 1
          stick: 0
          destroyOnMoveOver: 0
          followRotation: 0
          lockLocalPosition: 0
          mirrorOn2PSide: 0
          initialRotation: {x: 0, y: 0, z: 0}
          positionOffSet: {x: 0, y: 0, z: 0}
          bodyPart: 0
        reference: 0
        name: 
        editorToggle: 0
        soundEffectsToggle: 0
      fallDown:
        clip1: {fileID: 7400000, guid: a139b82c7e3701f418396418194403d6, type: 2}
        clip2: {fileID: 0}
        clip3: {fileID: 0}
        clip4: {fileID: 0}
        clip5: {fileID: 0}
        clip6: {fileID: 0}
        wrapMode: 8
        autoSpeed: 0
        animationSpeed: 1
        restingClipInterval: 6
        overrideBlendingIn: 0
        overrideBlendingOut: 0
        blendingIn: 0
        blendingOut: 0
        invincible: 0
        disableHeadLook: 0
        applyRootMotion: 0
        downClip: 0
        soundEffects: []
        continuousSound: 0
        particleEffect:
          editorToggle: 0
          prefab: {fileID: 0}
          duration: 0
          stick: 0
          destroyOnMoveOver: 0
          followRotation: 0
          lockLocalPosition: 0
          mirrorOn2PSide: 0
          initialRotation: {x: 0, y: 0, z: 0}
          positionOffSet: {x: 0, y: 0, z: 0}
          bodyPart: 0
        reference: 0
        name: fallDown
        editorToggle: 0
        soundEffectsToggle: 0
      airRecovery:
        clip1: {fileID: 7400000, guid: 0fd098ee9eacb8e4b9ece8ebe50ae008, type: 2}
        clip2: {fileID: 0}
        clip3: {fileID: 0}
        clip4: {fileID: 0}
        clip5: {fileID: 0}
        clip6: {fileID: 0}
        wrapMode: 8
        autoSpeed: 1
        animationSpeed: 1
        restingClipInterval: 6
        overrideBlendingIn: 0
        overrideBlendingOut: 0
        blendingIn: 0
        blendingOut: 0
        invincible: 1
        disableHeadLook: 0
        applyRootMotion: 0
        downClip: 0
        soundEffects: []
        continuousSound: 0
        particleEffect:
          editorToggle: 0
          prefab: {fileID: 0}
          duration: 1
          stick: 0
          destroyOnMoveOver: 0
          followRotation: 0
          lockLocalPosition: 0
          mirrorOn2PSide: 0
          initialRotation: {x: 0, y: 0, z: 0}
          positionOffSet: {x: 0, y: 0, z: 0}
          bodyPart: 0
        reference: 0
        name: 
        editorToggle: 0
        soundEffectsToggle: 0
      getHitCrouching:
        clip1: {fileID: 7400000, guid: ec3a4489b1f42444ba9477bbfc78e6f9, type: 2}
        clip2: {fileID: 0}
        clip3: {fileID: 0}
        clip4: {fileID: 0}
        clip5: {fileID: 0}
        clip6: {fileID: 0}
        wrapMode: 1
        autoSpeed: 1
        animationSpeed: 1
        restingClipInterval: 6
        overrideBlendingIn: 1
        overrideBlendingOut: 0
        blendingIn: 0
        blendingOut: 0
        invincible: 0
        disableHeadLook: 0
        applyRootMotion: 0
        downClip: 0
        soundEffects: []
        continuousSound: 0
        particleEffect:
          editorToggle: 0
          prefab: {fileID: 0}
          duration: 1
          stick: 0
          destroyOnMoveOver: 0
          followRotation: 0
          lockLocalPosition: 0
          mirrorOn2PSide: 0
          initialRotation: {x: 0, y: 0, z: 0}
          positionOffSet: {x: 0, y: 0, z: 0}
          bodyPart: 0
        reference: 0
        name: 
        editorToggle: 0
        soundEffectsToggle: 0
      getHitHigh:
        clip1: {fileID: 7400000, guid: a64e83680cf92f94e8763b0acbfb6824, type: 2}
        clip2: {fileID: 0}
        clip3: {fileID: 0}
        clip4: {fileID: 0}
        clip5: {fileID: 0}
        clip6: {fileID: 0}
        wrapMode: 1
        autoSpeed: 1
        animationSpeed: 1
        restingClipInterval: 6
        overrideBlendingIn: 1
        overrideBlendingOut: 0
        blendingIn: 0
        blendingOut: 0
        invincible: 0
        disableHeadLook: 0
        applyRootMotion: 0
        downClip: 0
        soundEffects: []
        continuousSound: 0
        particleEffect:
          editorToggle: 0
          prefab: {fileID: 0}
          duration: 0
          stick: 0
          destroyOnMoveOver: 0
          followRotation: 0
          lockLocalPosition: 0
          mirrorOn2PSide: 0
          initialRotation: {x: 0, y: 0, z: 0}
          positionOffSet: {x: 0, y: 0, z: 0}
          bodyPart: 0
        reference: 0
        name: getHitHigh
        editorToggle: 0
        soundEffectsToggle: 0
      getHitLow:
        clip1: {fileID: 7400000, guid: a64e83680cf92f94e8763b0acbfb6824, type: 2}
        clip2: {fileID: 0}
        clip3: {fileID: 0}
        clip4: {fileID: 0}
        clip5: {fileID: 0}
        clip6: {fileID: 0}
        wrapMode: 1
        autoSpeed: 1
        animationSpeed: 1
        restingClipInterval: 6
        overrideBlendingIn: 1
        overrideBlendingOut: 0
        blendingIn: 0
        blendingOut: 0
        invincible: 0
        disableHeadLook: 0
        applyRootMotion: 0
        downClip: 0
        soundEffects: []
        continuousSound: 0
        particleEffect:
          editorToggle: 0
          prefab: {fileID: 0}
          duration: 1
          stick: 0
          destroyOnMoveOver: 0
          followRotation: 0
          lockLocalPosition: 0
          mirrorOn2PSide: 0
          initialRotation: {x: 0, y: 0, z: 0}
          positionOffSet: {x: 0, y: 0, z: 0}
          bodyPart: 0
        reference: 0
        name: 
        editorToggle: 0
        soundEffectsToggle: 0
      getHitHighKnockdown:
        clip1: {fileID: 7400000, guid: 0eaf80d4b3de6a645a6bcb5cd817c711, type: 2}
        clip2: {fileID: 0}
        clip3: {fileID: 0}
        clip4: {fileID: 0}
        clip5: {fileID: 0}
        clip6: {fileID: 0}
        wrapMode: 8
        autoSpeed: 0
        animationSpeed: 0.2
        restingClipInterval: 6
        overrideBlendingIn: 0
        overrideBlendingOut: 0
        blendingIn: 0
        blendingOut: 0
        invincible: 0
        disableHeadLook: 0
        applyRootMotion: 0
        downClip: 0
        soundEffects: []
        continuousSound: 0
        particleEffect:
          editorToggle: 0
          prefab: {fileID: 0}
          duration: 1
          stick: 0
          destroyOnMoveOver: 0
          followRotation: 0
          lockLocalPosition: 0
          mirrorOn2PSide: 0
          initialRotation: {x: 0, y: 0, z: 0}
          positionOffSet: {x: 0, y: 0, z: 0}
          bodyPart: 0
        reference: 0
        name: 
        editorToggle: 0
        soundEffectsToggle: 0
      getHitMidKnockdown:
        clip1: {fileID: 0}
        clip2: {fileID: 0}
        clip3: {fileID: 0}
        clip4: {fileID: 0}
        clip5: {fileID: 0}
        clip6: {fileID: 0}
        wrapMode: 8
        autoSpeed: 0
        animationSpeed: 1
        restingClipInterval: 6
        overrideBlendingIn: 0
        overrideBlendingOut: 0
        blendingIn: 0
        blendingOut: 0
        invincible: 0
        disableHeadLook: 0
        applyRootMotion: 0
        downClip: 0
        soundEffects: []
        continuousSound: 0
        particleEffect:
          editorToggle: 0
          prefab: {fileID: 0}
          duration: 1
          stick: 0
          destroyOnMoveOver: 0
          followRotation: 0
          lockLocalPosition: 0
          mirrorOn2PSide: 0
          initialRotation: {x: 0, y: 0, z: 0}
          positionOffSet: {x: 0, y: 0, z: 0}
          bodyPart: 0
        reference: 0
        name: 
        editorToggle: 0
        soundEffectsToggle: 0
      getHitAir:
        clip1: {fileID: 7400000, guid: c4b06c6764c00704e9114e9fdd469907, type: 2}
        clip2: {fileID: 0}
        clip3: {fileID: 0}
        clip4: {fileID: 0}
        clip5: {fileID: 0}
        clip6: {fileID: 0}
        wrapMode: 8
        autoSpeed: 1
        animationSpeed: 1
        restingClipInterval: 6
        overrideBlendingIn: 1
        overrideBlendingOut: 0
        blendingIn: 0
        blendingOut: 0
        invincible: 0
        disableHeadLook: 0
        applyRootMotion: 0
        downClip: 0
        soundEffects: []
        continuousSound: 0
        particleEffect:
          editorToggle: 0
          prefab: {fileID: 0}
          duration: 0
          stick: 0
          destroyOnMoveOver: 0
          followRotation: 0
          lockLocalPosition: 0
          mirrorOn2PSide: 0
          initialRotation: {x: 0, y: 0, z: 0}
          positionOffSet: {x: 0, y: 0, z: 0}
          bodyPart: 0
        reference: 0
        name: getHitAir
        editorToggle: 0
        soundEffectsToggle: 0
      getHitCrumple:
        clip1: {fileID: 7400000, guid: a64e83680cf92f94e8763b0acbfb6824, type: 2}
        clip2: {fileID: 0}
        clip3: {fileID: 0}
        clip4: {fileID: 0}
        clip5: {fileID: 0}
        clip6: {fileID: 0}
        wrapMode: 8
        autoSpeed: 1
        animationSpeed: 1
        restingClipInterval: 6
        overrideBlendingIn: 0
        overrideBlendingOut: 0
        blendingIn: 0
        blendingOut: 0
        invincible: 0
        disableHeadLook: 0
        applyRootMotion: 0
        downClip: 0
        soundEffects: []
        continuousSound: 0
        particleEffect:
          editorToggle: 0
          prefab: {fileID: 0}
          duration: 1
          stick: 0
          destroyOnMoveOver: 0
          followRotation: 0
          lockLocalPosition: 0
          mirrorOn2PSide: 0
          initialRotation: {x: 0, y: 0, z: 0}
          positionOffSet: {x: 0, y: 0, z: 0}
          bodyPart: 0
        reference: 0
        name: 
        editorToggle: 0
        soundEffectsToggle: 0
      getHitKnockBack:
        clip1: {fileID: 0}
        clip2: {fileID: 0}
        clip3: {fileID: 0}
        clip4: {fileID: 0}
        clip5: {fileID: 0}
        clip6: {fileID: 0}
        wrapMode: 8
        autoSpeed: 1
        animationSpeed: 1
        restingClipInterval: 6
        overrideBlendingIn: 0
        overrideBlendingOut: 0
        blendingIn: 0
        blendingOut: 0
        invincible: 0
        disableHeadLook: 0
        applyRootMotion: 0
        downClip: 0
        soundEffects: []
        continuousSound: 0
        particleEffect:
          editorToggle: 0
          prefab: {fileID: 0}
          duration: 1
          stick: 0
          destroyOnMoveOver: 0
          followRotation: 0
          lockLocalPosition: 0
          mirrorOn2PSide: 0
          initialRotation: {x: 0, y: 0, z: 0}
          positionOffSet: {x: 0, y: 0, z: 0}
          bodyPart: 0
        reference: 0
        name: 
        editorToggle: 0
        soundEffectsToggle: 0
      getHitSweep:
        clip1: {fileID: 7400000, guid: a139b82c7e3701f418396418194403d6, type: 2}
        clip2: {fileID: 0}
        clip3: {fileID: 0}
        clip4: {fileID: 0}
        clip5: {fileID: 0}
        clip6: {fileID: 0}
        wrapMode: 8
        autoSpeed: 0
        animationSpeed: 1
        restingClipInterval: 6
        overrideBlendingIn: 1
        overrideBlendingOut: 0
        blendingIn: 0.3
        blendingOut: 0
        invincible: 0
        disableHeadLook: 0
        applyRootMotion: 0
        downClip: 0
        soundEffects: []
        continuousSound: 0
        particleEffect:
          editorToggle: 0
          prefab: {fileID: 0}
          duration: 1
          stick: 0
          destroyOnMoveOver: 0
          followRotation: 0
          lockLocalPosition: 0
          mirrorOn2PSide: 0
          initialRotation: {x: 0, y: 0, z: 0}
          positionOffSet: {x: 0, y: 0, z: 0}
          bodyPart: 0
        reference: 0
        name: 
        editorToggle: 0
        soundEffectsToggle: 0
      standUp:
        clip1: {fileID: 7400000, guid: 8c93d5bfbbd6e7e49861a02cd2385839, type: 2}
        clip2: {fileID: 0}
        clip3: {fileID: 0}
        clip4: {fileID: 0}
        clip5: {fileID: 0}
        clip6: {fileID: 0}
        wrapMode: 8
        autoSpeed: 1
        animationSpeed: 1
        restingClipInterval: 6
        overrideBlendingIn: 0
        overrideBlendingOut: 0
        blendingIn: 0
        blendingOut: 0
        invincible: 0
        disableHeadLook: 0
        applyRootMotion: 0
        downClip: 0
        soundEffects: []
        continuousSound: 0
        particleEffect:
          editorToggle: 0
          prefab: {fileID: 0}
          duration: 1
          stick: 0
          destroyOnMoveOver: 0
          followRotation: 0
          lockLocalPosition: 0
          mirrorOn2PSide: 0
          initialRotation: {x: 0, y: 0, z: 0}
          positionOffSet: {x: 0, y: 0, z: 0}
          bodyPart: 0
        reference: 0
        name: 
        editorToggle: 0
        soundEffectsToggle: 0
      standUpFromAirHit:
        clip1: {fileID: 0}
        clip2: {fileID: 0}
        clip3: {fileID: 0}
        clip4: {fileID: 0}
        clip5: {fileID: 0}
        clip6: {fileID: 0}
        wrapMode: 0
        autoSpeed: 1
        animationSpeed: 1
        restingClipInterval: 6
        overrideBlendingIn: 0
        overrideBlendingOut: 0
        blendingIn: 0
        blendingOut: 0
        invincible: 0
        disableHeadLook: 0
        applyRootMotion: 0
        downClip: 0
        soundEffects: []
        continuousSound: 0
        particleEffect:
          editorToggle: 0
          prefab: {fileID: 0}
          duration: 1
          stick: 0
          destroyOnMoveOver: 0
          followRotation: 0
          lockLocalPosition: 0
          mirrorOn2PSide: 0
          initialRotation: {x: 0, y: 0, z: 0}
          positionOffSet: {x: 0, y: 0, z: 0}
          bodyPart: 0
        reference: 0
        name: 
        editorToggle: 0
        soundEffectsToggle: 0
      standUpFromKnockBack:
        clip1: {fileID: 0}
        clip2: {fileID: 0}
        clip3: {fileID: 0}
        clip4: {fileID: 0}
        clip5: {fileID: 0}
        clip6: {fileID: 0}
        wrapMode: 0
        autoSpeed: 1
        animationSpeed: 1
        restingClipInterval: 6
        overrideBlendingIn: 0
        overrideBlendingOut: 0
        blendingIn: 0
        blendingOut: 0
        invincible: 0
        disableHeadLook: 0
        applyRootMotion: 0
        downClip: 0
        soundEffects: []
        continuousSound: 0
        particleEffect:
          editorToggle: 0
          prefab: {fileID: 0}
          duration: 1
          stick: 0
          destroyOnMoveOver: 0
          followRotation: 0
          lockLocalPosition: 0
          mirrorOn2PSide: 0
          initialRotation: {x: 0, y: 0, z: 0}
          positionOffSet: {x: 0, y: 0, z: 0}
          bodyPart: 0
        reference: 0
        name: 
        editorToggle: 0
        soundEffectsToggle: 0
      standUpFromStandingHighHit:
        clip1: {fileID: 0}
        clip2: {fileID: 0}
        clip3: {fileID: 0}
        clip4: {fileID: 0}
        clip5: {fileID: 0}
        clip6: {fileID: 0}
        wrapMode: 0
        autoSpeed: 1
        animationSpeed: 1
        restingClipInterval: 6
        overrideBlendingIn: 0
        overrideBlendingOut: 0
        blendingIn: 0
        blendingOut: 0
        invincible: 0
        disableHeadLook: 0
        applyRootMotion: 0
        downClip: 0
        soundEffects: []
        continuousSound: 0
        particleEffect:
          editorToggle: 0
          prefab: {fileID: 0}
          duration: 1
          stick: 0
          destroyOnMoveOver: 0
          followRotation: 0
          lockLocalPosition: 0
          mirrorOn2PSide: 0
          initialRotation: {x: 0, y: 0, z: 0}
          positionOffSet: {x: 0, y: 0, z: 0}
          bodyPart: 0
        reference: 0
        name: 
        editorToggle: 0
        soundEffectsToggle: 0
      standUpFromStandingMidHit:
        clip1: {fileID: 0}
        clip2: {fileID: 0}
        clip3: {fileID: 0}
        clip4: {fileID: 0}
        clip5: {fileID: 0}
        clip6: {fileID: 0}
        wrapMode: 0
        autoSpeed: 1
        animationSpeed: 1
        restingClipInterval: 6
        overrideBlendingIn: 0
        overrideBlendingOut: 0
        blendingIn: 0
        blendingOut: 0
        invincible: 0
        disableHeadLook: 0
        applyRootMotion: 0
        downClip: 0
        soundEffects: []
        continuousSound: 0
        particleEffect:
          editorToggle: 0
          prefab: {fileID: 0}
          duration: 1
          stick: 0
          destroyOnMoveOver: 0
          followRotation: 0
          lockLocalPosition: 0
          mirrorOn2PSide: 0
          initialRotation: {x: 0, y: 0, z: 0}
          positionOffSet: {x: 0, y: 0, z: 0}
          bodyPart: 0
        reference: 0
        name: 
        editorToggle: 0
        soundEffectsToggle: 0
      standUpFromCrumple:
        clip1: {fileID: 0}
        clip2: {fileID: 0}
        clip3: {fileID: 0}
        clip4: {fileID: 0}
        clip5: {fileID: 0}
        clip6: {fileID: 0}
        wrapMode: 0
        autoSpeed: 1
        animationSpeed: 1
        restingClipInterval: 6
        overrideBlendingIn: 0
        overrideBlendingOut: 0
        blendingIn: 0
        blendingOut: 0
        invincible: 0
        disableHeadLook: 0
        applyRootMotion: 0
        downClip: 0
        soundEffects: []
        continuousSound: 0
        particleEffect:
          editorToggle: 0
          prefab: {fileID: 0}
          duration: 1
          stick: 0
          destroyOnMoveOver: 0
          followRotation: 0
          lockLocalPosition: 0
          mirrorOn2PSide: 0
          initialRotation: {x: 0, y: 0, z: 0}
          positionOffSet: {x: 0, y: 0, z: 0}
          bodyPart: 0
        reference: 0
        name: 
        editorToggle: 0
        soundEffectsToggle: 0
      standUpFromSweep:
        clip1: {fileID: 0}
        clip2: {fileID: 0}
        clip3: {fileID: 0}
        clip4: {fileID: 0}
        clip5: {fileID: 0}
        clip6: {fileID: 0}
        wrapMode: 0
        autoSpeed: 1
        animationSpeed: 1
        restingClipInterval: 6
        overrideBlendingIn: 0
        overrideBlendingOut: 0
        blendingIn: 0
        blendingOut: 0
        invincible: 0
        disableHeadLook: 0
        applyRootMotion: 0
        downClip: 0
        soundEffects: []
        continuousSound: 0
        particleEffect:
          editorToggle: 0
          prefab: {fileID: 0}
          duration: 1
          stick: 0
          destroyOnMoveOver: 0
          followRotation: 0
          lockLocalPosition: 0
          mirrorOn2PSide: 0
          initialRotation: {x: 0, y: 0, z: 0}
          positionOffSet: {x: 0, y: 0, z: 0}
          bodyPart: 0
        reference: 0
        name: 
        editorToggle: 0
        soundEffectsToggle: 0
      standUpFromStandingWallBounce:
        clip1: {fileID: 0}
        clip2: {fileID: 0}
        clip3: {fileID: 0}
        clip4: {fileID: 0}
        clip5: {fileID: 0}
        clip6: {fileID: 0}
        wrapMode: 0
        autoSpeed: 1
        animationSpeed: 1
        restingClipInterval: 6
        overrideBlendingIn: 0
        overrideBlendingOut: 0
        blendingIn: 0
        blendingOut: 0
        invincible: 0
        disableHeadLook: 0
        applyRootMotion: 0
        downClip: 0
        soundEffects: []
        continuousSound: 0
        particleEffect:
          editorToggle: 0
          prefab: {fileID: 0}
          duration: 1
          stick: 0
          destroyOnMoveOver: 0
          followRotation: 0
          lockLocalPosition: 0
          mirrorOn2PSide: 0
          initialRotation: {x: 0, y: 0, z: 0}
          positionOffSet: {x: 0, y: 0, z: 0}
          bodyPart: 0
        reference: 0
        name: 
        editorToggle: 0
        soundEffectsToggle: 0
      standUpFromAirWallBounce:
        clip1: {fileID: 0}
        clip2: {fileID: 0}
        clip3: {fileID: 0}
        clip4: {fileID: 0}
        clip5: {fileID: 0}
        clip6: {fileID: 0}
        wrapMode: 0
        autoSpeed: 1
        animationSpeed: 1
        restingClipInterval: 6
        overrideBlendingIn: 0
        overrideBlendingOut: 0
        blendingIn: 0
        blendingOut: 0
        invincible: 0
        disableHeadLook: 0
        applyRootMotion: 0
        downClip: 0
        soundEffects: []
        continuousSound: 0
        particleEffect:
          editorToggle: 0
          prefab: {fileID: 0}
          duration: 1
          stick: 0
          destroyOnMoveOver: 0
          followRotation: 0
          lockLocalPosition: 0
          mirrorOn2PSide: 0
          initialRotation: {x: 0, y: 0, z: 0}
          positionOffSet: {x: 0, y: 0, z: 0}
          bodyPart: 0
        reference: 0
        name: 
        editorToggle: 0
        soundEffectsToggle: 0
      standUpFromGroundBounce:
        clip1: {fileID: 0}
        clip2: {fileID: 0}
        clip3: {fileID: 0}
        clip4: {fileID: 0}
        clip5: {fileID: 0}
        clip6: {fileID: 0}
        wrapMode: 0
        autoSpeed: 1
        animationSpeed: 1
        restingClipInterval: 6
        overrideBlendingIn: 0
        overrideBlendingOut: 0
        blendingIn: 0
        blendingOut: 0
        invincible: 0
        disableHeadLook: 0
        applyRootMotion: 0
        downClip: 0
        soundEffects: []
        continuousSound: 0
        particleEffect:
          editorToggle: 0
          prefab: {fileID: 0}
          duration: 1
          stick: 0
          destroyOnMoveOver: 0
          followRotation: 0
          lockLocalPosition: 0
          mirrorOn2PSide: 0
          initialRotation: {x: 0, y: 0, z: 0}
          positionOffSet: {x: 0, y: 0, z: 0}
          bodyPart: 0
        reference: 0
        name: 
        editorToggle: 0
        soundEffectsToggle: 0
      moveEnabled: 1
      jumpEnabled: 1
      crouchEnabled: 1
      blockEnabled: 1
      parryEnabled: 1
    attackMoves:
    - {fileID: 11400000, guid: 8c36bc67aa9f6a34da526ae64c16569d, type: 2}
    - {fileID: 11400000, guid: 8c986580fbdc05e41b5171055f8baf72, type: 2}
    - {fileID: 11400000, guid: fc9a298c598c2444a8c17295d747ee8f, type: 2}
    - {fileID: 11400000, guid: f19a4a004a16491468eae2f9f9f88a94, type: 2}
    - {fileID: 11400000, guid: b27d4e6a2973c1a47a13969a087e1eff, type: 2}
    - {fileID: 11400000, guid: 5444367db5d545d47868869e1a091fcd, type: 2}
    - {fileID: 11400000, guid: 6713053791658224b9ba2423839bb21e, type: 2}
    - {fileID: 11400000, guid: cccdfa34dc64a614193a8ff42a3fc2c8, type: 2}
    - {fileID: 11400000, guid: 81c326b65dafe2f4d872e527080ac60f, type: 2}
    - {fileID: 11400000, guid: 1aab869987c969a46ac23a0b7b77200d, type: 2}
    - {fileID: 11400000, guid: 5043e374edf5c6a4bbcaeb689edc7834, type: 2}
    - {fileID: 11400000, guid: 8dd79d0a977be244c8bd9b676e80ab2b, type: 2}
    - {fileID: 11400000, guid: 99deee52ff346964d8eb2f2d75f6abc3, type: 2}
    - {fileID: 11400000, guid: 335995f662513be4db2a80da321d11bb, type: 2}
    - {fileID: 11400000, guid: dfb09fc449cbab64780b2da4b8545e05, type: 2}
    - {fileID: 11400000, guid: a421cbfbf03bd364fa9167deacb5cf15, type: 2}
    - {fileID: 11400000, guid: 2200eb3c44e8d124e95f20d6a4e1a005, type: 2}
    - {fileID: 11400000, guid: 46fca648e5ee8d245b899c8d88f1ea65, type: 2}
    - {fileID: 11400000, guid: 4d80ab1cc8febbb4fa580177e6a1370a, type: 2}
    - {fileID: 11400000, guid: ea6726902b0fe4043a93cb0944fc410e, type: 2}
    - {fileID: 11400000, guid: 6877ee9e773effa4680248b55c2c0963, type: 2}
    - {fileID: 11400000, guid: 37ef3a67cfb6104478f9ab91b5706804, type: 2}
    - {fileID: 11400000, guid: f30269e9de637b34fbf45bd2cbd84956, type: 2}
    - {fileID: 11400000, guid: d3ebd5ef24f1d814597977202f3af354, type: 2}
    - {fileID: 11400000, guid: 26e599fdf78444d4ba781afd2fa8db08, type: 2}
    - {fileID: 11400000, guid: 6566a5cb98f31ae429bba765eef44729, type: 2}
    - {fileID: 11400000, guid: d3f176657e651e543bc4b8dd16c2291e, type: 2}
    - {fileID: 11400000, guid: 6a49f38ab0f4b23428bb0d5a8662904f, type: 2}
    - {fileID: 11400000, guid: a1c40a7517d836b45ad094cf9a454b8a, type: 2}
    - {fileID: 11400000, guid: 74dbc0b5bb182b84980cb5441a1b901f, type: 2}
    - {fileID: 11400000, guid: 8f83b9159c481184c8fbd5a18c45bff0, type: 2}
    - {fileID: 11400000, guid: f4b11a0e0262f334aa44afca5b7d6116, type: 2}
    - {fileID: 11400000, guid: 82fad16bfbc9577478b364215c578f22, type: 2}
    - {fileID: 11400000, guid: db5e9777ab2393e4ba1d2425f2f7f010, type: 2}
    enabledBasicMovesToggle: 0
    basicMovesToggle: 0
    attackMovesToggle: 1
  aiInstructionsSet:
  - aiInfo: {fileID: 11400000, guid: 50d4630698994bd45b6f19bf649b3a90, type: 2}
    behavior: 4
  - aiInfo: {fileID: 11400000, guid: 0cbb4bf9fc37e2540a4b1900a715cbb1, type: 2}
    behavior: 3
  - aiInfo: {fileID: 11400000, guid: 17d8c9859bca4a548a7621c06d6cfebf, type: 2}
    behavior: 2
